EESchema Schematic File Version 2
LIBS:curve-tracer
LIBS:curve-tracer-cache
EELAYER 25 0
EELAYER END
$Descr A4 11693 8268
encoding utf-8
Sheet 1 1
Title ""
Date ""
Rev ""
Comp ""
Comment1 ""
Comment2 ""
Comment3 ""
Comment4 ""
$EndDescr
$Comp
L OP275 U2
U 2 1 5984F0AC
P 4235 1975
F 0 "U2" H 4235 2125 50  0000 L CNN
F 1 "TL072" H 4235 1825 50  0000 L CNN
F 2 "footprints:DIP-8_W7.62mm" H 4135 2025 50  0001 C CNN
F 3 "" H 4235 2125 50  0001 C CNN
	2    4235 1975
	1    0    0    1   
$EndComp
$Comp
L OP275 U1
U 1 1 5984F1A8
P 2285 1570
F 0 "U1" H 2285 1720 50  0000 L CNN
F 1 "TL072" H 2285 1420 50  0000 L CNN
F 2 "footprints:DIP-8_W7.62mm" H 2185 1620 50  0001 C CNN
F 3 "" H 2285 1720 50  0001 C CNN
	1    2285 1570
	1    0    0    1   
$EndComp
$Comp
L Lamp LA1
U 1 1 5984F37A
P 1585 1275
F 0 "LA1" V 1730 1210 50  0000 L CNN
F 1 "CM7380" V 1420 1130 50  0000 L CNN
F 2 "footprints:CP_Radial_D8.0mm_P3.50mm" V 1585 1375 50  0001 C CNN
F 3 "" V 1585 1375 50  0001 C CNN
	1    1585 1275
	0    1    1    0   
$EndComp
$Comp
L GND #PWR01
U 1 1 5984F4FC
P 1315 1275
F 0 "#PWR01" H 1315 1025 50  0001 C CNN
F 1 "GND" H 1315 1125 50  0000 C CNN
F 2 "" H 1315 1275 50  0001 C CNN
F 3 "" H 1315 1275 50  0001 C CNN
	1    1315 1275
	0    1    1    0   
$EndComp
$Comp
L R R7
U 1 1 5984F652
P 2100 2090
F 0 "R7" V 2180 2090 50  0000 C CNN
F 1 "1.6k" V 2100 2090 50  0000 C CNN
F 2 "footprints:R_Axial_DIN0207_L6.3mm_D2.5mm_P7.62mm_Horizontal" V 2030 2090 50  0001 C CNN
F 3 "" H 2100 2090 50  0001 C CNN
	1    2100 2090
	0    1    1    0   
$EndComp
$Comp
L R R3
U 1 1 5984F6D5
P 1595 1670
F 0 "R3" V 1675 1670 50  0000 C CNN
F 1 "1.5k" V 1595 1670 50  0000 C CNN
F 2 "footprints:R_Axial_DIN0207_L6.3mm_D2.5mm_P7.62mm_Horizontal" V 1525 1670 50  0001 C CNN
F 3 "" H 1595 1670 50  0001 C CNN
	1    1595 1670
	0    -1   -1   0   
$EndComp
$Comp
L GND #PWR02
U 1 1 5984F950
P 840 1670
F 0 "#PWR02" H 840 1420 50  0001 C CNN
F 1 "GND" H 840 1520 50  0000 C CNN
F 2 "" H 840 1670 50  0001 C CNN
F 3 "" H 840 1670 50  0001 C CNN
	1    840  1670
	0    1    1    0   
$EndComp
$Comp
L C C4
U 1 1 5984FF45
P 2525 2090
F 0 "C4" H 2550 2190 50  0000 L CNN
F 1 "100n" H 2550 1990 50  0000 L CNN
F 2 "footprints:C_Rect_L7.2mm_W2.5mm_P5.00mm_FKS2_FKP2_MKS2_MKP2" H 2563 1940 50  0001 C CNN
F 3 "" H 2525 2090 50  0001 C CNN
	1    2525 2090
	0    1    1    0   
$EndComp
$Comp
L C C1
U 1 1 59850023
P 1905 2310
F 0 "C1" H 1930 2410 50  0000 L CNN
F 1 "100n" H 1930 2210 50  0000 L CNN
F 2 "footprints:C_Rect_L7.2mm_W2.5mm_P5.00mm_FKS2_FKP2_MKS2_MKP2" H 1943 2160 50  0001 C CNN
F 3 "" H 1905 2310 50  0001 C CNN
	1    1905 2310
	1    0    0    -1  
$EndComp
$Comp
L GND #PWR03
U 1 1 59850586
P 1905 2515
F 0 "#PWR03" H 1905 2265 50  0001 C CNN
F 1 "GND" H 1905 2365 50  0000 C CNN
F 2 "" H 1905 2515 50  0001 C CNN
F 3 "" H 1905 2515 50  0001 C CNN
	1    1905 2515
	1    0    0    -1  
$EndComp
$Comp
L POT RV4
U 1 1 598507EA
P 3125 1875
F 0 "RV4" V 2950 1875 50  0000 C CNN
F 1 "10k" V 3025 1875 50  0000 C CNN
F 2 "footprints:Potentiometer_WirePads" H 3125 1875 50  0001 C CNN
F 3 "" H 3125 1875 50  0001 C CNN
	1    3125 1875
	1    0    0    1   
$EndComp
$Comp
L GND #PWR04
U 1 1 598508A0
P 3125 2105
F 0 "#PWR04" H 3125 1855 50  0001 C CNN
F 1 "GND" H 3125 1955 50  0000 C CNN
F 2 "" H 3125 2105 50  0001 C CNN
F 3 "" H 3125 2105 50  0001 C CNN
	1    3125 2105
	1    0    0    -1  
$EndComp
$Comp
L R R11
U 1 1 59850AB2
P 3535 1875
F 0 "R11" V 3615 1875 50  0000 C CNN
F 1 "10k" V 3535 1875 50  0000 C CNN
F 2 "footprints:R_Axial_DIN0207_L6.3mm_D2.5mm_P7.62mm_Horizontal" V 3465 1875 50  0001 C CNN
F 3 "" H 3535 1875 50  0001 C CNN
	1    3535 1875
	0    1    1    0   
$EndComp
$Comp
L R R12
U 1 1 59850CCC
P 4205 1335
F 0 "R12" V 4285 1335 50  0000 C CNN
F 1 "100k" V 4205 1335 50  0000 C CNN
F 2 "footprints:R_Axial_DIN0207_L6.3mm_D2.5mm_P7.62mm_Horizontal" V 4135 1335 50  0001 C CNN
F 3 "" H 4205 1335 50  0001 C CNN
	1    4205 1335
	0    1    1    0   
$EndComp
$Comp
L GND #PWR05
U 1 1 5985117C
P 3810 2180
F 0 "#PWR05" H 3810 1930 50  0001 C CNN
F 1 "GND" H 3810 2030 50  0000 C CNN
F 2 "" H 3810 2180 50  0001 C CNN
F 3 "" H 3810 2180 50  0001 C CNN
	1    3810 2180
	1    0    0    -1  
$EndComp
$Comp
L PWR_FLAG #FLG06
U 1 1 59851E66
P 5950 5835
F 0 "#FLG06" H 5950 5910 50  0001 C CNN
F 1 "PWR_FLAG" H 5950 5985 50  0000 C CNN
F 2 "" H 5950 5835 50  0001 C CNN
F 3 "" H 5950 5835 50  0001 C CNN
	1    5950 5835
	0    1    -1   0   
$EndComp
Text Label 5935 5835 2    60   ~ 0
vdd
$Comp
L PWR_FLAG #FLG07
U 1 1 598521B5
P 5950 6795
F 0 "#FLG07" H 5950 6870 50  0001 C CNN
F 1 "PWR_FLAG" H 5950 6945 50  0000 C CNN
F 2 "" H 5950 6795 50  0001 C CNN
F 3 "" H 5950 6795 50  0001 C CNN
	1    5950 6795
	0    1    -1   0   
$EndComp
Text Label 5905 6795 2    60   ~ 0
vss
Text Label 2185 1920 0    60   ~ 0
vdd
Text Label 4135 2275 0    60   ~ 0
vdd
Text Label 4135 1675 0    60   ~ 0
vss
$Comp
L PWR_FLAG #FLG08
U 1 1 59853775
P 5955 6295
F 0 "#FLG08" H 5955 6370 50  0001 C CNN
F 1 "PWR_FLAG" H 5955 6445 50  0000 C CNN
F 2 "" H 5955 6295 50  0001 C CNN
F 3 "" H 5955 6295 50  0001 C CNN
	1    5955 6295
	0    1    -1   0   
$EndComp
$Comp
L GND #PWR09
U 1 1 5985381E
P 5930 6330
F 0 "#PWR09" H 5930 6080 50  0001 C CNN
F 1 "GND" H 5930 6180 50  0000 C CNN
F 2 "" H 5930 6330 50  0001 C CNN
F 3 "" H 5930 6330 50  0001 C CNN
	1    5930 6330
	-1   0    0    -1  
$EndComp
Text GLabel 4950 1975 2    60   Input ~ 0
Osc
Text GLabel 1085 5525 0    60   Input ~ 0
Osc
$Comp
L R R2
U 1 1 5985A867
P 1535 5300
F 0 "R2" V 1440 5290 50  0000 C CNN
F 1 "6k8" V 1535 5300 50  0000 C CNN
F 2 "footprints:R_Axial_DIN0207_L6.3mm_D2.5mm_P7.62mm_Horizontal" V 1465 5300 50  0001 C CNN
F 3 "" H 1535 5300 50  0001 C CNN
	1    1535 5300
	-1   0    0    1   
$EndComp
$Comp
L R R5
U 1 1 5985A929
P 1810 5525
F 0 "R5" V 1890 5525 50  0000 C CNN
F 1 "220k" V 1810 5525 50  0000 C CNN
F 2 "footprints:R_Axial_DIN0207_L6.3mm_D2.5mm_P7.62mm_Horizontal" V 1740 5525 50  0001 C CNN
F 3 "" H 1810 5525 50  0001 C CNN
	1    1810 5525
	0    1    1    0   
$EndComp
$Comp
L OP275 U2
U 1 1 5985AA5D
P 2420 5425
F 0 "U2" H 2420 5575 50  0000 L CNN
F 1 "TL072" H 2420 5275 50  0000 L CNN
F 2 "footprints:DIP-8_W7.62mm" H 2320 5475 50  0001 C CNN
F 3 "" H 2420 5575 50  0001 C CNN
	1    2420 5425
	1    0    0    1   
$EndComp
$Comp
L R R4
U 1 1 5985AB16
P 2050 4580
F 0 "R4" V 2130 4580 50  0000 C CNN
F 1 "220k" V 2050 4580 50  0000 C CNN
F 2 "footprints:R_Axial_DIN0207_L6.3mm_D2.5mm_P7.62mm_Horizontal" V 1980 4580 50  0001 C CNN
F 3 "" H 2050 4580 50  0001 C CNN
	1    2050 4580
	-1   0    0    1   
$EndComp
$Comp
L R R8
U 1 1 5985ACC8
P 2500 4830
F 0 "R8" V 2580 4830 50  0000 C CNN
F 1 "220k" V 2500 4830 50  0000 C CNN
F 2 "footprints:R_Axial_DIN0207_L6.3mm_D2.5mm_P7.62mm_Horizontal" V 2430 4830 50  0001 C CNN
F 3 "" H 2500 4830 50  0001 C CNN
	1    2500 4830
	0    1    1    0   
$EndComp
$Comp
L R R6
U 1 1 5985B409
P 2060 5740
F 0 "R6" V 2140 5740 50  0000 C CNN
F 1 "100k" V 2060 5740 50  0000 C CNN
F 2 "footprints:R_Axial_DIN0207_L6.3mm_D2.5mm_P7.62mm_Horizontal" V 1990 5740 50  0001 C CNN
F 3 "" H 2060 5740 50  0001 C CNN
	1    2060 5740
	1    0    0    -1  
$EndComp
$Comp
L Screw_Terminal_1x02 Vert1
U 1 1 5985BA43
P 3695 5525
F 0 "Vert1" H 3695 5775 50  0000 C TNN
F 1 "Vertical" V 3545 5525 50  0000 C TNN
F 2 "footprints:TerminalBlock_bornier-2_P5.08mm" H 3695 5300 50  0001 C CNN
F 3 "" H 3670 5525 50  0001 C CNN
	1    3695 5525
	-1   0    0    1   
$EndComp
$Comp
L GND #PWR010
U 1 1 5985BC88
P 3380 5705
F 0 "#PWR010" H 3380 5455 50  0001 C CNN
F 1 "GND" H 3380 5555 50  0000 C CNN
F 2 "" H 3380 5705 50  0001 C CNN
F 3 "" H 3380 5705 50  0001 C CNN
	1    3380 5705
	1    0    0    -1  
$EndComp
$Comp
L GND #PWR011
U 1 1 5985BF92
P 1330 6760
F 0 "#PWR011" H 1330 6510 50  0001 C CNN
F 1 "GND" H 1330 6610 50  0000 C CNN
F 2 "" H 1330 6760 50  0001 C CNN
F 3 "" H 1330 6760 50  0001 C CNN
	1    1330 6760
	1    0    0    -1  
$EndComp
$Comp
L R R10
U 1 1 5985CF79
P 2910 5690
F 0 "R10" V 2990 5690 50  0000 C CNN
F 1 "22k" V 2910 5690 50  0000 C CNN
F 2 "footprints:R_Axial_DIN0207_L6.3mm_D2.5mm_P7.62mm_Horizontal" V 2840 5690 50  0001 C CNN
F 3 "" H 2910 5690 50  0001 C CNN
	1    2910 5690
	1    0    0    -1  
$EndComp
$Comp
L GND #PWR012
U 1 1 5985D1AF
P 2910 5945
F 0 "#PWR012" H 2910 5695 50  0001 C CNN
F 1 "GND" H 2910 5795 50  0000 C CNN
F 2 "" H 2910 5945 50  0001 C CNN
F 3 "" H 2910 5945 50  0001 C CNN
	1    2910 5945
	1    0    0    -1  
$EndComp
Text Label 2320 5125 2    60   ~ 0
vss
Text Label 2320 5725 2    60   ~ 0
vdd
$Comp
L OP275 U1
U 2 1 59860342
P 2365 3365
F 0 "U1" H 2365 3515 50  0000 L CNN
F 1 "TL072" H 2365 3215 50  0000 L CNN
F 2 "footprints:DIP-8_W7.62mm" H 2265 3415 50  0001 C CNN
F 3 "" H 2365 3515 50  0001 C CNN
	2    2365 3365
	1    0    0    1   
$EndComp
Text Label 2265 3065 0    60   ~ 0
vss
Text Label 2265 3665 0    60   ~ 0
vdd
$Comp
L Screw_Terminal_1x02 DUT1
U 1 1 59860C82
P 1150 3365
F 0 "DUT1" H 1150 3615 50  0000 C TNN
F 1 "DUT" V 1000 3365 50  0000 C TNN
F 2 "footprints:TerminalBlock_bornier-2_P5.08mm" H 1150 3140 50  0001 C CNN
F 3 "" H 1125 3365 50  0001 C CNN
	1    1150 3365
	1    0    0    -1  
$EndComp
$Comp
L GND #PWR013
U 1 1 59860ECD
P 1535 3265
F 0 "#PWR013" H 1535 3015 50  0001 C CNN
F 1 "GND" H 1535 3115 50  0000 C CNN
F 2 "" H 1535 3265 50  0001 C CNN
F 3 "" H 1535 3265 50  0001 C CNN
	1    1535 3265
	0    -1   -1   0   
$EndComp
$Comp
L R R9
U 1 1 598610CE
P 2775 3575
F 0 "R9" V 2855 3575 50  0000 C CNN
F 1 "22k" V 2775 3575 50  0000 C CNN
F 2 "footprints:R_Axial_DIN0207_L6.3mm_D2.5mm_P7.62mm_Horizontal" V 2705 3575 50  0001 C CNN
F 3 "" H 2775 3575 50  0001 C CNN
	1    2775 3575
	1    0    0    -1  
$EndComp
$Comp
L GND #PWR014
U 1 1 59861191
P 2775 3785
F 0 "#PWR014" H 2775 3535 50  0001 C CNN
F 1 "GND" H 2775 3635 50  0000 C CNN
F 2 "" H 2775 3785 50  0001 C CNN
F 3 "" H 2775 3785 50  0001 C CNN
	1    2775 3785
	1    0    0    -1  
$EndComp
$Comp
L Screw_Terminal_1x02 Horiz1
U 1 1 598622AA
P 3715 3465
F 0 "Horiz1" H 3715 3715 50  0000 C TNN
F 1 "Horizontal" V 3565 3465 50  0000 C TNN
F 2 "footprints:TerminalBlock_bornier-2_P5.08mm" H 3715 3240 50  0001 C CNN
F 3 "" H 3690 3465 50  0001 C CNN
	1    3715 3465
	-1   0    0    1   
$EndComp
$Comp
L GND #PWR015
U 1 1 598623E2
P 3390 3635
F 0 "#PWR015" H 3390 3385 50  0001 C CNN
F 1 "GND" H 3390 3485 50  0000 C CNN
F 2 "" H 3390 3635 50  0001 C CNN
F 3 "" H 3390 3635 50  0001 C CNN
	1    3390 3635
	1    0    0    -1  
$EndComp
$Comp
L OP275 U3
U 2 1 59863296
P 5305 3155
F 0 "U3" H 5305 3305 50  0000 L CNN
F 1 "MC1458" H 5305 3005 50  0000 L CNN
F 2 "footprints:DIP-8_W7.62mm" H 5205 3205 50  0001 C CNN
F 3 "" H 5305 3305 50  0001 C CNN
	2    5305 3155
	1    0    0    -1  
$EndComp
Text Label 5205 3455 2    60   ~ 0
vss
Text Label 5205 2855 2    60   ~ 0
vdd
Text GLabel 4840 3055 0    60   Input ~ 0
Osc
$Comp
L R R13
U 1 1 59864E87
P 5745 3815
F 0 "R13" V 5825 3815 50  0000 C CNN
F 1 "100k" V 5745 3815 50  0000 C CNN
F 2 "footprints:R_Axial_DIN0207_L6.3mm_D2.5mm_P7.62mm_Horizontal" V 5675 3815 50  0001 C CNN
F 3 "" H 5745 3815 50  0001 C CNN
	1    5745 3815
	1    0    0    -1  
$EndComp
$Comp
L CP1_Small C5
U 1 1 59864F32
P 6050 3770
F 0 "C5" H 6060 3840 50  0000 L CNN
F 1 "22µ" H 6060 3690 50  0000 L CNN
F 2 "footprints:CP_Radial_D6.3mm_P2.50mm" H 6050 3770 50  0001 C CNN
F 3 "" H 6050 3770 50  0001 C CNN
	1    6050 3770
	1    0    0    -1  
$EndComp
$Comp
L D D3
U 1 1 59865146
P 5825 3155
F 0 "D3" H 5825 3255 50  0000 C CNN
F 1 "1N4148" H 5825 3055 50  0000 C CNN
F 2 "footprints:D_DO-41_SOD81_P7.62mm_Horizontal" H 5825 3155 50  0001 C CNN
F 3 "" H 5825 3155 50  0001 C CNN
	1    5825 3155
	-1   0    0    1   
$EndComp
$Comp
L Screw_Terminal_1x02 Peak1
U 1 1 598652B3
P 6495 3255
F 0 "Peak1" H 6495 3505 50  0000 C TNN
F 1 "Peak" V 6345 3255 50  0000 C TNN
F 2 "footprints:TerminalBlock_bornier-2_P5.08mm" H 6495 3030 50  0001 C CNN
F 3 "" H 6470 3255 50  0001 C CNN
	1    6495 3255
	-1   0    0    1   
$EndComp
$Comp
L GND #PWR016
U 1 1 59865410
P 6225 3425
F 0 "#PWR016" H 6225 3175 50  0001 C CNN
F 1 "GND" H 6225 3275 50  0000 C CNN
F 2 "" H 6225 3425 50  0001 C CNN
F 3 "" H 6225 3425 50  0001 C CNN
	1    6225 3425
	1    0    0    -1  
$EndComp
$Comp
L GND #PWR017
U 1 1 59865750
P 5745 4035
F 0 "#PWR017" H 5745 3785 50  0001 C CNN
F 1 "GND" H 5745 3885 50  0000 C CNN
F 2 "" H 5745 4035 50  0001 C CNN
F 3 "" H 5745 4035 50  0001 C CNN
	1    5745 4035
	1    0    0    -1  
$EndComp
$Comp
L GND #PWR018
U 1 1 598657DC
P 6050 4035
F 0 "#PWR018" H 6050 3785 50  0001 C CNN
F 1 "GND" H 6050 3885 50  0000 C CNN
F 2 "" H 6050 4035 50  0001 C CNN
F 3 "" H 6050 4035 50  0001 C CNN
	1    6050 4035
	1    0    0    -1  
$EndComp
$Comp
L CP1_Small C2
U 1 1 59866376
P 5630 6055
F 0 "C2" H 5640 6125 50  0000 L CNN
F 1 "47µ" H 5640 5975 50  0000 L CNN
F 2 "footprints:CP_Radial_D6.3mm_P2.50mm" H 5630 6055 50  0001 C CNN
F 3 "" H 5630 6055 50  0001 C CNN
	1    5630 6055
	-1   0    0    -1  
$EndComp
$Comp
L CP1_Small C3
U 1 1 59866435
P 5630 6540
F 0 "C3" H 5640 6610 50  0000 L CNN
F 1 "47µ" H 5640 6460 50  0000 L CNN
F 2 "footprints:CP_Radial_D6.3mm_P2.50mm" H 5630 6540 50  0001 C CNN
F 3 "" H 5630 6540 50  0001 C CNN
	1    5630 6540
	-1   0    0    -1  
$EndComp
$Comp
L Screw_Terminal_1x03 Power1
U 1 1 59867D83
P 4725 6295
F 0 "Power1" H 4725 6645 50  0000 C TNN
F 1 "Power" V 4575 6295 50  0000 C TNN
F 2 "footprints:TerminalBlock_bornier-3_P5.08mm" H 4725 5970 50  0001 C CNN
F 3 "" H 4700 6395 50  0001 C CNN
	1    4725 6295
	1    0    0    -1  
$EndComp
$Comp
L OP275 U3
U 1 1 59861DFF
P 5945 4825
F 0 "U3" H 5945 4975 50  0000 L CNN
F 1 "MC1458" H 5945 4675 50  0000 L CNN
F 2 "footprints:DIP-8_W7.62mm" H 5845 4875 50  0001 C CNN
F 3 "" H 5945 4975 50  0001 C CNN
	1    5945 4825
	1    0    0    -1  
$EndComp
Text Label 5845 4525 0    60   ~ 0
vdd
Text Label 5845 5125 0    60   ~ 0
vss
$Comp
L GND #PWR019
U 1 1 5986280F
P 5540 4725
F 0 "#PWR019" H 5540 4475 50  0001 C CNN
F 1 "GND" H 5540 4575 50  0000 C CNN
F 2 "" H 5540 4725 50  0001 C CNN
F 3 "" H 5540 4725 50  0001 C CNN
	1    5540 4725
	0    1    1    0   
$EndComp
$Comp
L POT_TRIM RV3
U 1 1 59867265
P 2135 825
F 0 "RV3" V 1960 825 50  0000 C CNN
F 1 "150" V 2035 825 50  0000 C CNN
F 2 "footprints:Potentiometer_Triwood_RM-065" H 2135 825 50  0001 C CNN
F 3 "" H 2135 825 50  0001 C CNN
	1    2135 825 
	0    1    1    0   
$EndComp
Text Label 2185 1210 0    60   ~ 0
vss
$Comp
L R R1
U 1 1 59DFEB3A
P 1335 5300
F 0 "R1" V 1245 5310 50  0000 C CNN
F 1 "680" V 1335 5300 50  0000 C CNN
F 2 "footprints:R_Axial_DIN0207_L6.3mm_D2.5mm_P7.62mm_Horizontal" V 1265 5300 50  0001 C CNN
F 3 "" H 1335 5300 50  0001 C CNN
	1    1335 5300
	1    0    0    -1  
$EndComp
$Comp
L POT_TRIM RV1
U 1 1 59E008CB
P 1330 6540
F 0 "RV1" V 1435 6635 50  0000 C CNN
F 1 "200k" V 1325 6545 50  0000 C CNN
F 2 "footprints:Potentiometer_Triwood_RM-065" H 1330 6540 50  0001 C CNN
F 3 "" H 1330 6540 50  0001 C CNN
	1    1330 6540
	-1   0    0    1   
$EndComp
$Comp
L GND #PWR020
U 1 1 59E00A97
P 1530 6760
F 0 "#PWR020" H 1530 6510 50  0001 C CNN
F 1 "GND" H 1530 6610 50  0000 C CNN
F 2 "" H 1530 6760 50  0001 C CNN
F 3 "" H 1530 6760 50  0001 C CNN
	1    1530 6760
	1    0    0    -1  
$EndComp
$Comp
L POT_TRIM RV2
U 1 1 5986886D
P 1530 6540
F 0 "RV2" V 1645 6450 50  0000 C CNN
F 1 "200k" V 1525 6540 50  0000 C CNN
F 2 "footprints:Potentiometer_Triwood_RM-065" H 1530 6540 50  0001 C CNN
F 3 "" H 1530 6540 50  0001 C CNN
	1    1530 6540
	1    0    0    -1  
$EndComp
$Comp
L POT_TRIM RV5
U 1 1 5A18A4E9
P 1335 4580
F 0 "RV5" V 1455 4495 50  0000 C CNN
F 1 "100" V 1335 4585 50  0000 C CNN
F 2 "footprints:Potentiometer_Triwood_RM-065" H 1335 4580 50  0001 C CNN
F 3 "" H 1335 4580 50  0001 C CNN
	1    1335 4580
	-1   0    0    1   
$EndComp
$Comp
L POT_TRIM RV6
U 1 1 5A18A5FE
P 1535 4580
F 0 "RV6" V 1645 4660 50  0000 C CNN
F 1 "1k" V 1535 4575 50  0000 C CNN
F 2 "footprints:Potentiometer_Triwood_RM-065" H 1535 4580 50  0001 C CNN
F 3 "" H 1535 4580 50  0001 C CNN
	1    1535 4580
	1    0    0    -1  
$EndComp
$Comp
L POT_TRIM RV7
U 1 1 5A187C48
P 1090 1670
F 0 "RV7" V 915 1670 50  0000 C CNN
F 1 "200" V 990 1670 50  0000 C CNN
F 2 "footprints:Potentiometer_Triwood_RM-065" H 1090 1670 50  0001 C CNN
F 3 "" H 1090 1670 50  0001 C CNN
	1    1090 1670
	0    1    1    0   
$EndComp
Wire Wire Line
	1985 825  1890 825 
Wire Wire Line
	1890 825  1890 1470
Wire Wire Line
	2285 825  2680 825 
Wire Wire Line
	2680 825  2680 2090
Wire Wire Line
	2585 1570 3125 1570
Wire Wire Line
	1315 1275 1385 1275
Wire Wire Line
	1900 1670 1985 1670
Wire Wire Line
	1240 1670 1445 1670
Wire Wire Line
	1745 1670 1905 1670
Connection ~ 1905 1670
Wire Wire Line
	1905 1670 1905 2160
Wire Wire Line
	1950 2090 1905 2090
Connection ~ 1905 2090
Wire Wire Line
	2250 2090 2375 2090
Wire Wire Line
	2680 2090 2675 2090
Connection ~ 2680 1570
Wire Wire Line
	1905 2515 1905 2460
Wire Wire Line
	3125 2025 3125 2105
Wire Wire Line
	3125 1570 3125 1725
Wire Wire Line
	3275 1875 3385 1875
Wire Wire Line
	3685 1875 3935 1875
Wire Wire Line
	4055 1335 3810 1335
Wire Wire Line
	3810 1335 3810 1875
Connection ~ 3810 1875
Wire Wire Line
	4535 1975 4950 1975
Wire Wire Line
	3810 2180 3810 2075
Wire Wire Line
	3810 2075 3935 2075
Wire Wire Line
	2185 1210 2185 1270
Wire Wire Line
	2185 1920 2185 1870
Wire Wire Line
	1960 5525 2120 5525
Wire Wire Line
	1085 5525 1660 5525
Wire Wire Line
	1530 5525 1535 5525
Connection ~ 1535 5525
Wire Wire Line
	2050 5325 2120 5325
Wire Wire Line
	2050 4730 2050 5325
Wire Wire Line
	2910 4830 2910 5540
Wire Wire Line
	2720 5425 3495 5425
Wire Wire Line
	2910 4830 2650 4830
Connection ~ 2910 5425
Wire Wire Line
	3380 5705 3380 5625
Wire Wire Line
	3380 5625 3495 5625
Wire Wire Line
	1330 6760 1330 6690
Wire Wire Line
	1535 5525 1535 5450
Wire Wire Line
	1350 3465 2065 3465
Wire Wire Line
	1535 3265 1350 3265
Wire Wire Line
	2065 3265 2050 3265
Wire Wire Line
	2050 3265 2050 2885
Wire Wire Line
	2050 2885 2775 2885
Wire Wire Line
	2775 2885 2775 3425
Wire Wire Line
	2665 3365 3515 3365
Wire Wire Line
	2775 3785 2775 3725
Connection ~ 2775 3365
Wire Wire Line
	3515 3565 3390 3565
Wire Wire Line
	3390 3565 3390 3635
Wire Wire Line
	4840 3055 5005 3055
Wire Wire Line
	5005 3255 4775 3255
Wire Wire Line
	5605 3155 5675 3155
Wire Wire Line
	5975 3155 6295 3155
Wire Wire Line
	6225 3425 6225 3355
Wire Wire Line
	6225 3355 6295 3355
Wire Wire Line
	6050 4035 6050 3870
Wire Wire Line
	5745 3965 5745 4035
Wire Wire Line
	6050 3155 6050 3670
Connection ~ 6050 3155
Wire Wire Line
	4775 3580 6050 3580
Connection ~ 6050 3580
Wire Wire Line
	5745 3580 5745 3665
Connection ~ 5745 3580
Wire Wire Line
	5630 6795 5630 6640
Wire Wire Line
	5630 6155 5630 6440
Wire Wire Line
	5630 5835 5630 5955
Wire Wire Line
	5930 6295 5930 6330
Wire Wire Line
	5645 4925 5520 4925
Wire Wire Line
	5520 4925 5520 5220
Wire Wire Line
	5520 5220 6415 5220
Wire Wire Line
	6415 5220 6415 4825
Wire Wire Line
	6415 4825 6245 4825
Wire Wire Line
	2135 975  2430 975 
Wire Wire Line
	2430 975  2430 825 
Connection ~ 2430 825 
Wire Wire Line
	1890 1470 1985 1470
Wire Wire Line
	1785 1275 1890 1275
Connection ~ 1890 1275
Wire Wire Line
	2910 5840 2910 5945
Wire Wire Line
	5645 4725 5540 4725
Wire Wire Line
	4355 1335 4710 1335
Wire Wire Line
	4775 3255 4775 3580
Wire Wire Line
	1435 3465 1435 3890
Connection ~ 1435 3465
Wire Wire Line
	1335 4730 1335 5150
Wire Wire Line
	1335 5450 1335 5525
Connection ~ 1335 5525
Wire Wire Line
	2060 5590 2060 5525
Connection ~ 2060 5525
Wire Wire Line
	2060 5890 1430 5890
Wire Wire Line
	1430 5890 1430 5945
Wire Wire Line
	1530 6690 1530 6760
Wire Wire Line
	1680 6370 1680 6540
Wire Wire Line
	1180 6375 1180 6540
Wire Wire Line
	1330 6345 1330 6390
Wire Wire Line
	1530 6345 1530 6390
Wire Wire Line
	1180 6375 1330 6375
Connection ~ 1330 6375
Wire Wire Line
	1680 6370 1530 6370
Wire Wire Line
	1435 3800 2050 3800
Connection ~ 1435 3800
Connection ~ 1530 6370
Wire Wire Line
	1535 4430 1535 4290
Wire Wire Line
	1335 4430 1335 4290
Wire Wire Line
	2050 3800 2050 4430
Wire Wire Line
	2050 4830 2350 4830
Connection ~ 2050 4830
Wire Wire Line
	1535 4730 1535 5150
Wire Wire Line
	1185 4580 1135 4580
Wire Wire Line
	1135 4580 1135 4835
Wire Wire Line
	1135 4835 1335 4835
Connection ~ 1335 4835
Wire Wire Line
	1685 4580 1750 4580
Wire Wire Line
	1750 4580 1750 4835
Wire Wire Line
	1750 4835 1535 4835
Connection ~ 1535 4835
Wire Wire Line
	840  1670 940  1670
Wire Wire Line
	1090 1820 1090 1910
Wire Wire Line
	1090 1910 1320 1910
Wire Wire Line
	1320 1910 1320 1670
Connection ~ 1320 1670
$Comp
L SW_SPDT SW2
U 1 1 5A1893C7
P 1435 4090
F 0 "SW2" H 1435 4260 50  0000 C CNN
F 1 "SW_SPDT" H 1435 3890 50  0000 C CNN
F 2 "footprints:Switch_Row_DTSP" H 1435 4090 50  0001 C CNN
F 3 "" H 1435 4090 50  0001 C CNN
	1    1435 4090
	0    1    1    0   
$EndComp
$Comp
L SW_SPDT SW1
U 1 1 5A189B09
P 1430 6145
F 0 "SW1" H 1430 6315 50  0000 C CNN
F 1 "SW_SPDT" H 1430 5945 50  0000 C CNN
F 2 "footprints:Switch_Row_DTSP" H 1430 6145 50  0001 C CNN
F 3 "" H 1430 6145 50  0001 C CNN
	1    1430 6145
	0    1    1    0   
$EndComp
Wire Notes Line
	1470 6155 700  6155
Wire Notes Line
	700  6155 700  4095
Wire Notes Line
	700  4095 1480 4095
Wire Notes Line
	1480 4095 1480 4090
Wire Wire Line
	5040 6295 5955 6295
Connection ~ 5630 6295
Connection ~ 5930 6295
Wire Wire Line
	5040 6295 5040 6095
Wire Wire Line
	5040 6095 4925 6095
Wire Wire Line
	4925 6795 4925 6495
Wire Wire Line
	4925 6295 4970 6295
Wire Wire Line
	4970 6295 4970 5835
Wire Wire Line
	4710 1335 4710 1975
Connection ~ 4710 1975
$Comp
L D D1
U 1 1 5A23D12D
P 5255 6795
F 0 "D1" H 5255 6895 50  0000 C CNN
F 1 "D" H 5255 6695 50  0000 C CNN
F 2 "footprints:D_DO-41_SOD81_P7.62mm_Horizontal" H 5255 6795 50  0001 C CNN
F 3 "" H 5255 6795 50  0001 C CNN
	1    5255 6795
	1    0    0    -1  
$EndComp
$Comp
L D D2
U 1 1 5A23D4E1
P 5300 5835
F 0 "D2" H 5300 5935 50  0000 C CNN
F 1 "D" H 5300 5735 50  0000 C CNN
F 2 "footprints:D_DO-41_SOD81_P7.62mm_Horizontal" H 5300 5835 50  0001 C CNN
F 3 "" H 5300 5835 50  0001 C CNN
	1    5300 5835
	-1   0    0    1   
$EndComp
Wire Wire Line
	4970 5835 5150 5835
Wire Wire Line
	4925 6795 5105 6795
Wire Wire Line
	5405 6795 5950 6795
Connection ~ 5630 6795
Wire Wire Line
	5450 5835 5950 5835
Connection ~ 5630 5835
$EndSCHEMATC
