G04 #@! TF.FileFunction,Legend,Top*
%FSLAX46Y46*%
G04 Gerber Fmt 4.6, Leading zero omitted, Abs format (unit mm)*
G04 Created by KiCad (PCBNEW 4.0.7) date Sunday, 28 January 2018 'PMt' 23:09:58*
%MOMM*%
%LPD*%
G01*
G04 APERTURE LIST*
%ADD10C,0.200000*%
%ADD11C,0.300000*%
%ADD12C,0.120000*%
%ADD13C,0.150000*%
G04 APERTURE END LIST*
D10*
D11*
X112571430Y-63035714D02*
X112500001Y-63107143D01*
X112285715Y-63178571D01*
X112142858Y-63178571D01*
X111928573Y-63107143D01*
X111785715Y-62964286D01*
X111714287Y-62821429D01*
X111642858Y-62535714D01*
X111642858Y-62321429D01*
X111714287Y-62035714D01*
X111785715Y-61892857D01*
X111928573Y-61750000D01*
X112142858Y-61678571D01*
X112285715Y-61678571D01*
X112500001Y-61750000D01*
X112571430Y-61821429D01*
X113857144Y-62178571D02*
X113857144Y-63178571D01*
X113214287Y-62178571D02*
X113214287Y-62964286D01*
X113285715Y-63107143D01*
X113428573Y-63178571D01*
X113642858Y-63178571D01*
X113785715Y-63107143D01*
X113857144Y-63035714D01*
X114571430Y-63178571D02*
X114571430Y-62178571D01*
X114571430Y-62464286D02*
X114642858Y-62321429D01*
X114714287Y-62250000D01*
X114857144Y-62178571D01*
X115000001Y-62178571D01*
X115357144Y-62178571D02*
X115714287Y-63178571D01*
X116071429Y-62178571D01*
X117214286Y-63107143D02*
X117071429Y-63178571D01*
X116785715Y-63178571D01*
X116642858Y-63107143D01*
X116571429Y-62964286D01*
X116571429Y-62392857D01*
X116642858Y-62250000D01*
X116785715Y-62178571D01*
X117071429Y-62178571D01*
X117214286Y-62250000D01*
X117285715Y-62392857D01*
X117285715Y-62535714D01*
X116571429Y-62678571D01*
X118857143Y-61678571D02*
X119714286Y-61678571D01*
X119285715Y-63178571D02*
X119285715Y-61678571D01*
X120214286Y-63178571D02*
X120214286Y-62178571D01*
X120214286Y-62464286D02*
X120285714Y-62321429D01*
X120357143Y-62250000D01*
X120500000Y-62178571D01*
X120642857Y-62178571D01*
X121785714Y-63178571D02*
X121785714Y-62392857D01*
X121714285Y-62250000D01*
X121571428Y-62178571D01*
X121285714Y-62178571D01*
X121142857Y-62250000D01*
X121785714Y-63107143D02*
X121642857Y-63178571D01*
X121285714Y-63178571D01*
X121142857Y-63107143D01*
X121071428Y-62964286D01*
X121071428Y-62821429D01*
X121142857Y-62678571D01*
X121285714Y-62607143D01*
X121642857Y-62607143D01*
X121785714Y-62535714D01*
X123142857Y-63107143D02*
X123000000Y-63178571D01*
X122714286Y-63178571D01*
X122571428Y-63107143D01*
X122500000Y-63035714D01*
X122428571Y-62892857D01*
X122428571Y-62464286D01*
X122500000Y-62321429D01*
X122571428Y-62250000D01*
X122714286Y-62178571D01*
X123000000Y-62178571D01*
X123142857Y-62250000D01*
X124357142Y-63107143D02*
X124214285Y-63178571D01*
X123928571Y-63178571D01*
X123785714Y-63107143D01*
X123714285Y-62964286D01*
X123714285Y-62392857D01*
X123785714Y-62250000D01*
X123928571Y-62178571D01*
X124214285Y-62178571D01*
X124357142Y-62250000D01*
X124428571Y-62392857D01*
X124428571Y-62535714D01*
X123714285Y-62678571D01*
X125071428Y-63178571D02*
X125071428Y-62178571D01*
X125071428Y-62464286D02*
X125142856Y-62321429D01*
X125214285Y-62250000D01*
X125357142Y-62178571D01*
X125499999Y-62178571D01*
X68214286Y-92678571D02*
X68214286Y-91178571D01*
X68214286Y-91892857D02*
X69071429Y-91892857D01*
X69071429Y-92678571D02*
X69071429Y-91178571D01*
X69785715Y-92678571D02*
X69785715Y-91678571D01*
X69785715Y-91178571D02*
X69714286Y-91250000D01*
X69785715Y-91321429D01*
X69857143Y-91250000D01*
X69785715Y-91178571D01*
X69785715Y-91321429D01*
X68785715Y-102678571D02*
X68071429Y-102678571D01*
X68071429Y-101178571D01*
X69500001Y-102678571D02*
X69357143Y-102607143D01*
X69285715Y-102535714D01*
X69214286Y-102392857D01*
X69214286Y-101964286D01*
X69285715Y-101821429D01*
X69357143Y-101750000D01*
X69500001Y-101678571D01*
X69714286Y-101678571D01*
X69857143Y-101750000D01*
X69928572Y-101821429D01*
X70000001Y-101964286D01*
X70000001Y-102392857D01*
X69928572Y-102535714D01*
X69857143Y-102607143D01*
X69714286Y-102678571D01*
X69500001Y-102678571D01*
X83035714Y-91678571D02*
X83035714Y-90178571D01*
X83035714Y-90892857D02*
X83892857Y-90892857D01*
X83892857Y-91678571D02*
X83892857Y-90178571D01*
X84607143Y-91678571D02*
X84607143Y-90678571D01*
X84607143Y-90178571D02*
X84535714Y-90250000D01*
X84607143Y-90321429D01*
X84678571Y-90250000D01*
X84607143Y-90178571D01*
X84607143Y-90321429D01*
X86464286Y-91107143D02*
X87607143Y-91107143D01*
X89250000Y-90178571D02*
X90107143Y-90178571D01*
X89678572Y-91678571D02*
X89678572Y-90178571D01*
X90607143Y-91678571D02*
X90607143Y-90678571D01*
X90607143Y-90178571D02*
X90535714Y-90250000D01*
X90607143Y-90321429D01*
X90678571Y-90250000D01*
X90607143Y-90178571D01*
X90607143Y-90321429D01*
X91535715Y-91678571D02*
X91392857Y-91607143D01*
X91321429Y-91464286D01*
X91321429Y-90178571D01*
X91892857Y-90678571D02*
X92464286Y-90678571D01*
X92107143Y-90178571D02*
X92107143Y-91464286D01*
X92178571Y-91607143D01*
X92321429Y-91678571D01*
X92464286Y-91678571D01*
X94107143Y-91107143D02*
X95250000Y-91107143D01*
X97821429Y-91678571D02*
X97107143Y-91678571D01*
X97107143Y-90178571D01*
X98535715Y-91678571D02*
X98392857Y-91607143D01*
X98321429Y-91535714D01*
X98250000Y-91392857D01*
X98250000Y-90964286D01*
X98321429Y-90821429D01*
X98392857Y-90750000D01*
X98535715Y-90678571D01*
X98750000Y-90678571D01*
X98892857Y-90750000D01*
X98964286Y-90821429D01*
X99035715Y-90964286D01*
X99035715Y-91392857D01*
X98964286Y-91535714D01*
X98892857Y-91607143D01*
X98750000Y-91678571D01*
X98535715Y-91678571D01*
X130678571Y-97571429D02*
X130678571Y-98428572D01*
X130678571Y-98000000D02*
X129178571Y-98000000D01*
X129392857Y-98142857D01*
X129535714Y-98285715D01*
X129607143Y-98428572D01*
X130678571Y-96928572D02*
X129178571Y-96928572D01*
X130107143Y-96785715D02*
X130678571Y-96357144D01*
X129678571Y-96357144D02*
X130250000Y-96928572D01*
X130678571Y-95714286D02*
X129178571Y-95714286D01*
X129892857Y-95714286D02*
X129892857Y-94857143D01*
X130678571Y-94857143D02*
X129178571Y-94857143D01*
X129678571Y-94285714D02*
X129678571Y-93500000D01*
X130678571Y-94285714D01*
X130678571Y-93500000D01*
X108642857Y-66321429D02*
X108714286Y-66250000D01*
X108857143Y-66178571D01*
X109214286Y-66178571D01*
X109357143Y-66250000D01*
X109428572Y-66321429D01*
X109500000Y-66464286D01*
X109500000Y-66607143D01*
X109428572Y-66821429D01*
X108571429Y-67678571D01*
X109500000Y-67678571D01*
X109928571Y-66178571D02*
X110428571Y-67678571D01*
X110928571Y-66178571D01*
X111428571Y-66678571D02*
X111428571Y-68178571D01*
X111428571Y-66750000D02*
X111571428Y-66678571D01*
X111857142Y-66678571D01*
X111999999Y-66750000D01*
X112071428Y-66821429D01*
X112142857Y-66964286D01*
X112142857Y-67392857D01*
X112071428Y-67535714D01*
X111999999Y-67607143D01*
X111857142Y-67678571D01*
X111571428Y-67678571D01*
X111428571Y-67607143D01*
X112785714Y-67107143D02*
X113928571Y-67107143D01*
X114642857Y-66678571D02*
X114642857Y-68178571D01*
X114642857Y-66750000D02*
X114785714Y-66678571D01*
X115071428Y-66678571D01*
X115214285Y-66750000D01*
X115285714Y-66821429D01*
X115357143Y-66964286D01*
X115357143Y-67392857D01*
X115285714Y-67535714D01*
X115214285Y-67607143D01*
X115071428Y-67678571D01*
X114785714Y-67678571D01*
X114642857Y-67607143D01*
X103428572Y-124178571D02*
X103785715Y-125178571D01*
X104142857Y-124178571D01*
X104642857Y-123821429D02*
X104714286Y-123750000D01*
X104857143Y-123678571D01*
X105214286Y-123678571D01*
X105357143Y-123750000D01*
X105428572Y-123821429D01*
X105500000Y-123964286D01*
X105500000Y-124107143D01*
X105428572Y-124321429D01*
X104571429Y-125178571D01*
X105500000Y-125178571D01*
X59714286Y-63178571D02*
X59714286Y-61678571D01*
X60214286Y-62750000D01*
X60714286Y-61678571D01*
X60714286Y-63178571D01*
X61428572Y-63178571D02*
X61428572Y-62178571D01*
X61428572Y-62464286D02*
X61500000Y-62321429D01*
X61571429Y-62250000D01*
X61714286Y-62178571D01*
X61857143Y-62178571D01*
X64357143Y-63035714D02*
X64285714Y-63107143D01*
X64071428Y-63178571D01*
X63928571Y-63178571D01*
X63714286Y-63107143D01*
X63571428Y-62964286D01*
X63500000Y-62821429D01*
X63428571Y-62535714D01*
X63428571Y-62321429D01*
X63500000Y-62035714D01*
X63571428Y-61892857D01*
X63714286Y-61750000D01*
X63928571Y-61678571D01*
X64071428Y-61678571D01*
X64285714Y-61750000D01*
X64357143Y-61821429D01*
X65642857Y-63178571D02*
X65642857Y-62392857D01*
X65571428Y-62250000D01*
X65428571Y-62178571D01*
X65142857Y-62178571D01*
X65000000Y-62250000D01*
X65642857Y-63107143D02*
X65500000Y-63178571D01*
X65142857Y-63178571D01*
X65000000Y-63107143D01*
X64928571Y-62964286D01*
X64928571Y-62821429D01*
X65000000Y-62678571D01*
X65142857Y-62607143D01*
X65500000Y-62607143D01*
X65642857Y-62535714D01*
X66357143Y-63178571D02*
X66357143Y-62178571D01*
X66357143Y-62464286D02*
X66428571Y-62321429D01*
X66500000Y-62250000D01*
X66642857Y-62178571D01*
X66785714Y-62178571D01*
X67500000Y-63178571D02*
X67357142Y-63107143D01*
X67285714Y-62964286D01*
X67285714Y-61678571D01*
X67999999Y-63107143D02*
X68142856Y-63178571D01*
X68428571Y-63178571D01*
X68571428Y-63107143D01*
X68642856Y-62964286D01*
X68642856Y-62892857D01*
X68571428Y-62750000D01*
X68428571Y-62678571D01*
X68214285Y-62678571D01*
X68071428Y-62607143D01*
X67999999Y-62464286D01*
X67999999Y-62392857D01*
X68071428Y-62250000D01*
X68214285Y-62178571D01*
X68428571Y-62178571D01*
X68571428Y-62250000D01*
X69500000Y-63178571D02*
X69357142Y-63107143D01*
X69285714Y-63035714D01*
X69214285Y-62892857D01*
X69214285Y-62464286D01*
X69285714Y-62321429D01*
X69357142Y-62250000D01*
X69500000Y-62178571D01*
X69714285Y-62178571D01*
X69857142Y-62250000D01*
X69928571Y-62321429D01*
X70000000Y-62464286D01*
X70000000Y-62892857D01*
X69928571Y-63035714D01*
X69857142Y-63107143D01*
X69714285Y-63178571D01*
X69500000Y-63178571D01*
X70642857Y-62178571D02*
X70642857Y-63178571D01*
X70642857Y-62321429D02*
X70714285Y-62250000D01*
X70857143Y-62178571D01*
X71071428Y-62178571D01*
X71214285Y-62250000D01*
X71285714Y-62392857D01*
X71285714Y-63178571D01*
X72071428Y-61678571D02*
X71928571Y-61964286D01*
X72642857Y-63107143D02*
X72785714Y-63178571D01*
X73071429Y-63178571D01*
X73214286Y-63107143D01*
X73285714Y-62964286D01*
X73285714Y-62892857D01*
X73214286Y-62750000D01*
X73071429Y-62678571D01*
X72857143Y-62678571D01*
X72714286Y-62607143D01*
X72642857Y-62464286D01*
X72642857Y-62392857D01*
X72714286Y-62250000D01*
X72857143Y-62178571D01*
X73071429Y-62178571D01*
X73214286Y-62250000D01*
X75785715Y-63178571D02*
X75071429Y-63178571D01*
X75071429Y-61678571D01*
X76928572Y-63178571D02*
X76928572Y-62392857D01*
X76857143Y-62250000D01*
X76714286Y-62178571D01*
X76428572Y-62178571D01*
X76285715Y-62250000D01*
X76928572Y-63107143D02*
X76785715Y-63178571D01*
X76428572Y-63178571D01*
X76285715Y-63107143D01*
X76214286Y-62964286D01*
X76214286Y-62821429D01*
X76285715Y-62678571D01*
X76428572Y-62607143D01*
X76785715Y-62607143D01*
X76928572Y-62535714D01*
X77642858Y-63178571D02*
X77642858Y-61678571D01*
X77642858Y-62250000D02*
X77785715Y-62178571D01*
X78071429Y-62178571D01*
X78214286Y-62250000D01*
X78285715Y-62321429D01*
X78357144Y-62464286D01*
X78357144Y-62892857D01*
X78285715Y-63035714D01*
X78214286Y-63107143D01*
X78071429Y-63178571D01*
X77785715Y-63178571D01*
X77642858Y-63107143D01*
X115071429Y-132178571D02*
X115214286Y-132178571D01*
X115357143Y-132250000D01*
X115428572Y-132321429D01*
X115500001Y-132464286D01*
X115571429Y-132750000D01*
X115571429Y-133107143D01*
X115500001Y-133392857D01*
X115428572Y-133535714D01*
X115357143Y-133607143D01*
X115214286Y-133678571D01*
X115071429Y-133678571D01*
X114928572Y-133607143D01*
X114857143Y-133535714D01*
X114785715Y-133392857D01*
X114714286Y-133107143D01*
X114714286Y-132750000D01*
X114785715Y-132464286D01*
X114857143Y-132321429D01*
X114928572Y-132250000D01*
X115071429Y-132178571D01*
X119642857Y-133107143D02*
X120785714Y-133107143D01*
X120214285Y-133678571D02*
X120214285Y-132535714D01*
X124928571Y-133107143D02*
X126071428Y-133107143D01*
X100642858Y-127403571D02*
X100642858Y-128689286D01*
X100571429Y-128832143D01*
X100428572Y-128903571D01*
X100357144Y-128903571D01*
X100642858Y-126903571D02*
X100571429Y-126975000D01*
X100642858Y-127046429D01*
X100714286Y-126975000D01*
X100642858Y-126903571D01*
X100642858Y-127046429D01*
X101357144Y-127403571D02*
X101357144Y-128903571D01*
X101357144Y-127475000D02*
X101500001Y-127403571D01*
X101785715Y-127403571D01*
X101928572Y-127475000D01*
X102000001Y-127546429D01*
X102071430Y-127689286D01*
X102071430Y-128117857D01*
X102000001Y-128260714D01*
X101928572Y-128332143D01*
X101785715Y-128403571D01*
X101500001Y-128403571D01*
X101357144Y-128332143D01*
X102642858Y-128332143D02*
X102785715Y-128403571D01*
X103071430Y-128403571D01*
X103214287Y-128332143D01*
X103285715Y-128189286D01*
X103285715Y-128117857D01*
X103214287Y-127975000D01*
X103071430Y-127903571D01*
X102857144Y-127903571D01*
X102714287Y-127832143D01*
X102642858Y-127689286D01*
X102642858Y-127617857D01*
X102714287Y-127475000D01*
X102857144Y-127403571D01*
X103071430Y-127403571D01*
X103214287Y-127475000D01*
X104500001Y-128332143D02*
X104357144Y-128403571D01*
X104071430Y-128403571D01*
X103928573Y-128332143D01*
X103857144Y-128189286D01*
X103857144Y-127617857D01*
X103928573Y-127475000D01*
X104071430Y-127403571D01*
X104357144Y-127403571D01*
X104500001Y-127475000D01*
X104571430Y-127617857D01*
X104571430Y-127760714D01*
X103857144Y-127903571D01*
X105857144Y-128332143D02*
X105714287Y-128403571D01*
X105428573Y-128403571D01*
X105285715Y-128332143D01*
X105214287Y-128260714D01*
X105142858Y-128117857D01*
X105142858Y-127689286D01*
X105214287Y-127546429D01*
X105285715Y-127475000D01*
X105428573Y-127403571D01*
X105714287Y-127403571D01*
X105857144Y-127475000D01*
X106500001Y-128403571D02*
X106500001Y-126903571D01*
X107142858Y-128403571D02*
X107142858Y-127617857D01*
X107071429Y-127475000D01*
X106928572Y-127403571D01*
X106714287Y-127403571D01*
X106571429Y-127475000D01*
X106500001Y-127546429D01*
X108428572Y-128332143D02*
X108285715Y-128403571D01*
X108000001Y-128403571D01*
X107857144Y-128332143D01*
X107785715Y-128189286D01*
X107785715Y-127617857D01*
X107857144Y-127475000D01*
X108000001Y-127403571D01*
X108285715Y-127403571D01*
X108428572Y-127475000D01*
X108500001Y-127617857D01*
X108500001Y-127760714D01*
X107785715Y-127903571D01*
X109142858Y-128403571D02*
X109142858Y-127403571D01*
X109142858Y-127689286D02*
X109214286Y-127546429D01*
X109285715Y-127475000D01*
X109428572Y-127403571D01*
X109571429Y-127403571D01*
X102428572Y-129596429D02*
X102500001Y-129525000D01*
X102642858Y-129453571D01*
X103000001Y-129453571D01*
X103142858Y-129525000D01*
X103214287Y-129596429D01*
X103285715Y-129739286D01*
X103285715Y-129882143D01*
X103214287Y-130096429D01*
X102357144Y-130953571D01*
X103285715Y-130953571D01*
X104214286Y-129453571D02*
X104357143Y-129453571D01*
X104500000Y-129525000D01*
X104571429Y-129596429D01*
X104642858Y-129739286D01*
X104714286Y-130025000D01*
X104714286Y-130382143D01*
X104642858Y-130667857D01*
X104571429Y-130810714D01*
X104500000Y-130882143D01*
X104357143Y-130953571D01*
X104214286Y-130953571D01*
X104071429Y-130882143D01*
X104000000Y-130810714D01*
X103928572Y-130667857D01*
X103857143Y-130382143D01*
X103857143Y-130025000D01*
X103928572Y-129739286D01*
X104000000Y-129596429D01*
X104071429Y-129525000D01*
X104214286Y-129453571D01*
X106142857Y-130953571D02*
X105285714Y-130953571D01*
X105714286Y-130953571D02*
X105714286Y-129453571D01*
X105571429Y-129667857D01*
X105428571Y-129810714D01*
X105285714Y-129882143D01*
X106642857Y-129453571D02*
X107642857Y-129453571D01*
X107000000Y-130953571D01*
D12*
X135286000Y-133000000D02*
G75*
G03X135286000Y-133000000I-2286000J0D01*
G01*
X55286000Y-133000000D02*
G75*
G03X55286000Y-133000000I-2286000J0D01*
G01*
X135286000Y-63000000D02*
G75*
G03X135286000Y-63000000I-2286000J0D01*
G01*
X55286000Y-63000000D02*
G75*
G03X55286000Y-63000000I-2286000J0D01*
G01*
X122310000Y-68840000D02*
X122310000Y-76160000D01*
X119690000Y-68840000D02*
X119690000Y-76160000D01*
X122310000Y-68840000D02*
X119690000Y-68840000D01*
X122310000Y-76160000D02*
X119690000Y-76160000D01*
X116267820Y-115820864D02*
G75*
G03X110232518Y-115820000I-3017820J-1179136D01*
G01*
X116267820Y-118179136D02*
G75*
G02X110232518Y-118180000I-3017820J1179136D01*
G01*
X116267820Y-118179136D02*
G75*
G03X116267482Y-115820000I-3017820J1179136D01*
G01*
X113250000Y-113800000D02*
X113250000Y-120200000D01*
X113290000Y-113800000D02*
X113290000Y-120200000D01*
X113330000Y-113800000D02*
X113330000Y-120200000D01*
X113370000Y-113802000D02*
X113370000Y-120198000D01*
X113410000Y-113803000D02*
X113410000Y-120197000D01*
X113450000Y-113806000D02*
X113450000Y-120194000D01*
X113490000Y-113808000D02*
X113490000Y-120192000D01*
X113530000Y-113812000D02*
X113530000Y-116020000D01*
X113530000Y-117980000D02*
X113530000Y-120188000D01*
X113570000Y-113815000D02*
X113570000Y-116020000D01*
X113570000Y-117980000D02*
X113570000Y-120185000D01*
X113610000Y-113820000D02*
X113610000Y-116020000D01*
X113610000Y-117980000D02*
X113610000Y-120180000D01*
X113650000Y-113824000D02*
X113650000Y-116020000D01*
X113650000Y-117980000D02*
X113650000Y-120176000D01*
X113690000Y-113830000D02*
X113690000Y-116020000D01*
X113690000Y-117980000D02*
X113690000Y-120170000D01*
X113730000Y-113835000D02*
X113730000Y-116020000D01*
X113730000Y-117980000D02*
X113730000Y-120165000D01*
X113770000Y-113842000D02*
X113770000Y-116020000D01*
X113770000Y-117980000D02*
X113770000Y-120158000D01*
X113810000Y-113848000D02*
X113810000Y-116020000D01*
X113810000Y-117980000D02*
X113810000Y-120152000D01*
X113850000Y-113856000D02*
X113850000Y-116020000D01*
X113850000Y-117980000D02*
X113850000Y-120144000D01*
X113890000Y-113863000D02*
X113890000Y-116020000D01*
X113890000Y-117980000D02*
X113890000Y-120137000D01*
X113930000Y-113872000D02*
X113930000Y-116020000D01*
X113930000Y-117980000D02*
X113930000Y-120128000D01*
X113971000Y-113881000D02*
X113971000Y-116020000D01*
X113971000Y-117980000D02*
X113971000Y-120119000D01*
X114011000Y-113890000D02*
X114011000Y-116020000D01*
X114011000Y-117980000D02*
X114011000Y-120110000D01*
X114051000Y-113900000D02*
X114051000Y-116020000D01*
X114051000Y-117980000D02*
X114051000Y-120100000D01*
X114091000Y-113910000D02*
X114091000Y-116020000D01*
X114091000Y-117980000D02*
X114091000Y-120090000D01*
X114131000Y-113921000D02*
X114131000Y-116020000D01*
X114131000Y-117980000D02*
X114131000Y-120079000D01*
X114171000Y-113933000D02*
X114171000Y-116020000D01*
X114171000Y-117980000D02*
X114171000Y-120067000D01*
X114211000Y-113945000D02*
X114211000Y-116020000D01*
X114211000Y-117980000D02*
X114211000Y-120055000D01*
X114251000Y-113958000D02*
X114251000Y-116020000D01*
X114251000Y-117980000D02*
X114251000Y-120042000D01*
X114291000Y-113971000D02*
X114291000Y-116020000D01*
X114291000Y-117980000D02*
X114291000Y-120029000D01*
X114331000Y-113985000D02*
X114331000Y-116020000D01*
X114331000Y-117980000D02*
X114331000Y-120015000D01*
X114371000Y-113999000D02*
X114371000Y-116020000D01*
X114371000Y-117980000D02*
X114371000Y-120001000D01*
X114411000Y-114014000D02*
X114411000Y-116020000D01*
X114411000Y-117980000D02*
X114411000Y-119986000D01*
X114451000Y-114030000D02*
X114451000Y-116020000D01*
X114451000Y-117980000D02*
X114451000Y-119970000D01*
X114491000Y-114046000D02*
X114491000Y-116020000D01*
X114491000Y-117980000D02*
X114491000Y-119954000D01*
X114531000Y-114063000D02*
X114531000Y-116020000D01*
X114531000Y-117980000D02*
X114531000Y-119937000D01*
X114571000Y-114081000D02*
X114571000Y-116020000D01*
X114571000Y-117980000D02*
X114571000Y-119919000D01*
X114611000Y-114099000D02*
X114611000Y-116020000D01*
X114611000Y-117980000D02*
X114611000Y-119901000D01*
X114651000Y-114118000D02*
X114651000Y-116020000D01*
X114651000Y-117980000D02*
X114651000Y-119882000D01*
X114691000Y-114137000D02*
X114691000Y-116020000D01*
X114691000Y-117980000D02*
X114691000Y-119863000D01*
X114731000Y-114157000D02*
X114731000Y-116020000D01*
X114731000Y-117980000D02*
X114731000Y-119843000D01*
X114771000Y-114178000D02*
X114771000Y-116020000D01*
X114771000Y-117980000D02*
X114771000Y-119822000D01*
X114811000Y-114200000D02*
X114811000Y-116020000D01*
X114811000Y-117980000D02*
X114811000Y-119800000D01*
X114851000Y-114222000D02*
X114851000Y-116020000D01*
X114851000Y-117980000D02*
X114851000Y-119778000D01*
X114891000Y-114245000D02*
X114891000Y-116020000D01*
X114891000Y-117980000D02*
X114891000Y-119755000D01*
X114931000Y-114269000D02*
X114931000Y-116020000D01*
X114931000Y-117980000D02*
X114931000Y-119731000D01*
X114971000Y-114294000D02*
X114971000Y-116020000D01*
X114971000Y-117980000D02*
X114971000Y-119706000D01*
X115011000Y-114319000D02*
X115011000Y-116020000D01*
X115011000Y-117980000D02*
X115011000Y-119681000D01*
X115051000Y-114346000D02*
X115051000Y-116020000D01*
X115051000Y-117980000D02*
X115051000Y-119654000D01*
X115091000Y-114373000D02*
X115091000Y-116020000D01*
X115091000Y-117980000D02*
X115091000Y-119627000D01*
X115131000Y-114401000D02*
X115131000Y-116020000D01*
X115131000Y-117980000D02*
X115131000Y-119599000D01*
X115171000Y-114430000D02*
X115171000Y-116020000D01*
X115171000Y-117980000D02*
X115171000Y-119570000D01*
X115211000Y-114460000D02*
X115211000Y-116020000D01*
X115211000Y-117980000D02*
X115211000Y-119540000D01*
X115251000Y-114490000D02*
X115251000Y-116020000D01*
X115251000Y-117980000D02*
X115251000Y-119510000D01*
X115291000Y-114522000D02*
X115291000Y-116020000D01*
X115291000Y-117980000D02*
X115291000Y-119478000D01*
X115331000Y-114555000D02*
X115331000Y-116020000D01*
X115331000Y-117980000D02*
X115331000Y-119445000D01*
X115371000Y-114589000D02*
X115371000Y-116020000D01*
X115371000Y-117980000D02*
X115371000Y-119411000D01*
X115411000Y-114625000D02*
X115411000Y-116020000D01*
X115411000Y-117980000D02*
X115411000Y-119375000D01*
X115451000Y-114661000D02*
X115451000Y-116020000D01*
X115451000Y-117980000D02*
X115451000Y-119339000D01*
X115491000Y-114699000D02*
X115491000Y-119301000D01*
X115531000Y-114738000D02*
X115531000Y-119262000D01*
X115571000Y-114778000D02*
X115571000Y-119222000D01*
X115611000Y-114820000D02*
X115611000Y-119180000D01*
X115651000Y-114863000D02*
X115651000Y-119137000D01*
X115691000Y-114908000D02*
X115691000Y-119092000D01*
X115731000Y-114955000D02*
X115731000Y-119045000D01*
X115771000Y-115003000D02*
X115771000Y-118997000D01*
X115811000Y-115054000D02*
X115811000Y-118946000D01*
X115851000Y-115106000D02*
X115851000Y-118894000D01*
X115891000Y-115161000D02*
X115891000Y-118839000D01*
X115931000Y-115219000D02*
X115931000Y-118781000D01*
X115971000Y-115279000D02*
X115971000Y-118721000D01*
X116011000Y-115342000D02*
X116011000Y-118658000D01*
X116051000Y-115409000D02*
X116051000Y-118591000D01*
X116091000Y-115480000D02*
X116091000Y-118520000D01*
X116131000Y-115555000D02*
X116131000Y-118445000D01*
X116171000Y-115636000D02*
X116171000Y-118364000D01*
X116211000Y-115722000D02*
X116211000Y-118278000D01*
X116251000Y-115816000D02*
X116251000Y-118184000D01*
X116291000Y-115919000D02*
X116291000Y-118081000D01*
X116331000Y-116034000D02*
X116331000Y-117966000D01*
X116371000Y-116166000D02*
X116371000Y-117834000D01*
X116411000Y-116324000D02*
X116411000Y-117676000D01*
X116451000Y-116532000D02*
X116451000Y-117468000D01*
X109800000Y-117000000D02*
X111000000Y-117000000D01*
X110400000Y-116350000D02*
X110400000Y-117650000D01*
X127767820Y-103820864D02*
G75*
G03X121732518Y-103820000I-3017820J-1179136D01*
G01*
X127767820Y-106179136D02*
G75*
G02X121732518Y-106180000I-3017820J1179136D01*
G01*
X127767820Y-106179136D02*
G75*
G03X127767482Y-103820000I-3017820J1179136D01*
G01*
X124750000Y-101800000D02*
X124750000Y-108200000D01*
X124790000Y-101800000D02*
X124790000Y-108200000D01*
X124830000Y-101800000D02*
X124830000Y-108200000D01*
X124870000Y-101802000D02*
X124870000Y-108198000D01*
X124910000Y-101803000D02*
X124910000Y-108197000D01*
X124950000Y-101806000D02*
X124950000Y-108194000D01*
X124990000Y-101808000D02*
X124990000Y-108192000D01*
X125030000Y-101812000D02*
X125030000Y-104020000D01*
X125030000Y-105980000D02*
X125030000Y-108188000D01*
X125070000Y-101815000D02*
X125070000Y-104020000D01*
X125070000Y-105980000D02*
X125070000Y-108185000D01*
X125110000Y-101820000D02*
X125110000Y-104020000D01*
X125110000Y-105980000D02*
X125110000Y-108180000D01*
X125150000Y-101824000D02*
X125150000Y-104020000D01*
X125150000Y-105980000D02*
X125150000Y-108176000D01*
X125190000Y-101830000D02*
X125190000Y-104020000D01*
X125190000Y-105980000D02*
X125190000Y-108170000D01*
X125230000Y-101835000D02*
X125230000Y-104020000D01*
X125230000Y-105980000D02*
X125230000Y-108165000D01*
X125270000Y-101842000D02*
X125270000Y-104020000D01*
X125270000Y-105980000D02*
X125270000Y-108158000D01*
X125310000Y-101848000D02*
X125310000Y-104020000D01*
X125310000Y-105980000D02*
X125310000Y-108152000D01*
X125350000Y-101856000D02*
X125350000Y-104020000D01*
X125350000Y-105980000D02*
X125350000Y-108144000D01*
X125390000Y-101863000D02*
X125390000Y-104020000D01*
X125390000Y-105980000D02*
X125390000Y-108137000D01*
X125430000Y-101872000D02*
X125430000Y-104020000D01*
X125430000Y-105980000D02*
X125430000Y-108128000D01*
X125471000Y-101881000D02*
X125471000Y-104020000D01*
X125471000Y-105980000D02*
X125471000Y-108119000D01*
X125511000Y-101890000D02*
X125511000Y-104020000D01*
X125511000Y-105980000D02*
X125511000Y-108110000D01*
X125551000Y-101900000D02*
X125551000Y-104020000D01*
X125551000Y-105980000D02*
X125551000Y-108100000D01*
X125591000Y-101910000D02*
X125591000Y-104020000D01*
X125591000Y-105980000D02*
X125591000Y-108090000D01*
X125631000Y-101921000D02*
X125631000Y-104020000D01*
X125631000Y-105980000D02*
X125631000Y-108079000D01*
X125671000Y-101933000D02*
X125671000Y-104020000D01*
X125671000Y-105980000D02*
X125671000Y-108067000D01*
X125711000Y-101945000D02*
X125711000Y-104020000D01*
X125711000Y-105980000D02*
X125711000Y-108055000D01*
X125751000Y-101958000D02*
X125751000Y-104020000D01*
X125751000Y-105980000D02*
X125751000Y-108042000D01*
X125791000Y-101971000D02*
X125791000Y-104020000D01*
X125791000Y-105980000D02*
X125791000Y-108029000D01*
X125831000Y-101985000D02*
X125831000Y-104020000D01*
X125831000Y-105980000D02*
X125831000Y-108015000D01*
X125871000Y-101999000D02*
X125871000Y-104020000D01*
X125871000Y-105980000D02*
X125871000Y-108001000D01*
X125911000Y-102014000D02*
X125911000Y-104020000D01*
X125911000Y-105980000D02*
X125911000Y-107986000D01*
X125951000Y-102030000D02*
X125951000Y-104020000D01*
X125951000Y-105980000D02*
X125951000Y-107970000D01*
X125991000Y-102046000D02*
X125991000Y-104020000D01*
X125991000Y-105980000D02*
X125991000Y-107954000D01*
X126031000Y-102063000D02*
X126031000Y-104020000D01*
X126031000Y-105980000D02*
X126031000Y-107937000D01*
X126071000Y-102081000D02*
X126071000Y-104020000D01*
X126071000Y-105980000D02*
X126071000Y-107919000D01*
X126111000Y-102099000D02*
X126111000Y-104020000D01*
X126111000Y-105980000D02*
X126111000Y-107901000D01*
X126151000Y-102118000D02*
X126151000Y-104020000D01*
X126151000Y-105980000D02*
X126151000Y-107882000D01*
X126191000Y-102137000D02*
X126191000Y-104020000D01*
X126191000Y-105980000D02*
X126191000Y-107863000D01*
X126231000Y-102157000D02*
X126231000Y-104020000D01*
X126231000Y-105980000D02*
X126231000Y-107843000D01*
X126271000Y-102178000D02*
X126271000Y-104020000D01*
X126271000Y-105980000D02*
X126271000Y-107822000D01*
X126311000Y-102200000D02*
X126311000Y-104020000D01*
X126311000Y-105980000D02*
X126311000Y-107800000D01*
X126351000Y-102222000D02*
X126351000Y-104020000D01*
X126351000Y-105980000D02*
X126351000Y-107778000D01*
X126391000Y-102245000D02*
X126391000Y-104020000D01*
X126391000Y-105980000D02*
X126391000Y-107755000D01*
X126431000Y-102269000D02*
X126431000Y-104020000D01*
X126431000Y-105980000D02*
X126431000Y-107731000D01*
X126471000Y-102294000D02*
X126471000Y-104020000D01*
X126471000Y-105980000D02*
X126471000Y-107706000D01*
X126511000Y-102319000D02*
X126511000Y-104020000D01*
X126511000Y-105980000D02*
X126511000Y-107681000D01*
X126551000Y-102346000D02*
X126551000Y-104020000D01*
X126551000Y-105980000D02*
X126551000Y-107654000D01*
X126591000Y-102373000D02*
X126591000Y-104020000D01*
X126591000Y-105980000D02*
X126591000Y-107627000D01*
X126631000Y-102401000D02*
X126631000Y-104020000D01*
X126631000Y-105980000D02*
X126631000Y-107599000D01*
X126671000Y-102430000D02*
X126671000Y-104020000D01*
X126671000Y-105980000D02*
X126671000Y-107570000D01*
X126711000Y-102460000D02*
X126711000Y-104020000D01*
X126711000Y-105980000D02*
X126711000Y-107540000D01*
X126751000Y-102490000D02*
X126751000Y-104020000D01*
X126751000Y-105980000D02*
X126751000Y-107510000D01*
X126791000Y-102522000D02*
X126791000Y-104020000D01*
X126791000Y-105980000D02*
X126791000Y-107478000D01*
X126831000Y-102555000D02*
X126831000Y-104020000D01*
X126831000Y-105980000D02*
X126831000Y-107445000D01*
X126871000Y-102589000D02*
X126871000Y-104020000D01*
X126871000Y-105980000D02*
X126871000Y-107411000D01*
X126911000Y-102625000D02*
X126911000Y-104020000D01*
X126911000Y-105980000D02*
X126911000Y-107375000D01*
X126951000Y-102661000D02*
X126951000Y-104020000D01*
X126951000Y-105980000D02*
X126951000Y-107339000D01*
X126991000Y-102699000D02*
X126991000Y-107301000D01*
X127031000Y-102738000D02*
X127031000Y-107262000D01*
X127071000Y-102778000D02*
X127071000Y-107222000D01*
X127111000Y-102820000D02*
X127111000Y-107180000D01*
X127151000Y-102863000D02*
X127151000Y-107137000D01*
X127191000Y-102908000D02*
X127191000Y-107092000D01*
X127231000Y-102955000D02*
X127231000Y-107045000D01*
X127271000Y-103003000D02*
X127271000Y-106997000D01*
X127311000Y-103054000D02*
X127311000Y-106946000D01*
X127351000Y-103106000D02*
X127351000Y-106894000D01*
X127391000Y-103161000D02*
X127391000Y-106839000D01*
X127431000Y-103219000D02*
X127431000Y-106781000D01*
X127471000Y-103279000D02*
X127471000Y-106721000D01*
X127511000Y-103342000D02*
X127511000Y-106658000D01*
X127551000Y-103409000D02*
X127551000Y-106591000D01*
X127591000Y-103480000D02*
X127591000Y-106520000D01*
X127631000Y-103555000D02*
X127631000Y-106445000D01*
X127671000Y-103636000D02*
X127671000Y-106364000D01*
X127711000Y-103722000D02*
X127711000Y-106278000D01*
X127751000Y-103816000D02*
X127751000Y-106184000D01*
X127791000Y-103919000D02*
X127791000Y-106081000D01*
X127831000Y-104034000D02*
X127831000Y-105966000D01*
X127871000Y-104166000D02*
X127871000Y-105834000D01*
X127911000Y-104324000D02*
X127911000Y-105676000D01*
X127951000Y-104532000D02*
X127951000Y-105468000D01*
X121300000Y-105000000D02*
X122500000Y-105000000D01*
X121900000Y-104350000D02*
X121900000Y-105650000D01*
X128310000Y-68840000D02*
X128310000Y-76160000D01*
X125690000Y-68840000D02*
X125690000Y-76160000D01*
X128310000Y-68840000D02*
X125690000Y-68840000D01*
X128310000Y-76160000D02*
X125690000Y-76160000D01*
X116267820Y-106820864D02*
G75*
G03X110232518Y-106820000I-3017820J-1179136D01*
G01*
X116267820Y-109179136D02*
G75*
G02X110232518Y-109180000I-3017820J1179136D01*
G01*
X116267820Y-109179136D02*
G75*
G03X116267482Y-106820000I-3017820J1179136D01*
G01*
X113250000Y-104800000D02*
X113250000Y-111200000D01*
X113290000Y-104800000D02*
X113290000Y-111200000D01*
X113330000Y-104800000D02*
X113330000Y-111200000D01*
X113370000Y-104802000D02*
X113370000Y-111198000D01*
X113410000Y-104803000D02*
X113410000Y-111197000D01*
X113450000Y-104806000D02*
X113450000Y-111194000D01*
X113490000Y-104808000D02*
X113490000Y-111192000D01*
X113530000Y-104812000D02*
X113530000Y-107020000D01*
X113530000Y-108980000D02*
X113530000Y-111188000D01*
X113570000Y-104815000D02*
X113570000Y-107020000D01*
X113570000Y-108980000D02*
X113570000Y-111185000D01*
X113610000Y-104820000D02*
X113610000Y-107020000D01*
X113610000Y-108980000D02*
X113610000Y-111180000D01*
X113650000Y-104824000D02*
X113650000Y-107020000D01*
X113650000Y-108980000D02*
X113650000Y-111176000D01*
X113690000Y-104830000D02*
X113690000Y-107020000D01*
X113690000Y-108980000D02*
X113690000Y-111170000D01*
X113730000Y-104835000D02*
X113730000Y-107020000D01*
X113730000Y-108980000D02*
X113730000Y-111165000D01*
X113770000Y-104842000D02*
X113770000Y-107020000D01*
X113770000Y-108980000D02*
X113770000Y-111158000D01*
X113810000Y-104848000D02*
X113810000Y-107020000D01*
X113810000Y-108980000D02*
X113810000Y-111152000D01*
X113850000Y-104856000D02*
X113850000Y-107020000D01*
X113850000Y-108980000D02*
X113850000Y-111144000D01*
X113890000Y-104863000D02*
X113890000Y-107020000D01*
X113890000Y-108980000D02*
X113890000Y-111137000D01*
X113930000Y-104872000D02*
X113930000Y-107020000D01*
X113930000Y-108980000D02*
X113930000Y-111128000D01*
X113971000Y-104881000D02*
X113971000Y-107020000D01*
X113971000Y-108980000D02*
X113971000Y-111119000D01*
X114011000Y-104890000D02*
X114011000Y-107020000D01*
X114011000Y-108980000D02*
X114011000Y-111110000D01*
X114051000Y-104900000D02*
X114051000Y-107020000D01*
X114051000Y-108980000D02*
X114051000Y-111100000D01*
X114091000Y-104910000D02*
X114091000Y-107020000D01*
X114091000Y-108980000D02*
X114091000Y-111090000D01*
X114131000Y-104921000D02*
X114131000Y-107020000D01*
X114131000Y-108980000D02*
X114131000Y-111079000D01*
X114171000Y-104933000D02*
X114171000Y-107020000D01*
X114171000Y-108980000D02*
X114171000Y-111067000D01*
X114211000Y-104945000D02*
X114211000Y-107020000D01*
X114211000Y-108980000D02*
X114211000Y-111055000D01*
X114251000Y-104958000D02*
X114251000Y-107020000D01*
X114251000Y-108980000D02*
X114251000Y-111042000D01*
X114291000Y-104971000D02*
X114291000Y-107020000D01*
X114291000Y-108980000D02*
X114291000Y-111029000D01*
X114331000Y-104985000D02*
X114331000Y-107020000D01*
X114331000Y-108980000D02*
X114331000Y-111015000D01*
X114371000Y-104999000D02*
X114371000Y-107020000D01*
X114371000Y-108980000D02*
X114371000Y-111001000D01*
X114411000Y-105014000D02*
X114411000Y-107020000D01*
X114411000Y-108980000D02*
X114411000Y-110986000D01*
X114451000Y-105030000D02*
X114451000Y-107020000D01*
X114451000Y-108980000D02*
X114451000Y-110970000D01*
X114491000Y-105046000D02*
X114491000Y-107020000D01*
X114491000Y-108980000D02*
X114491000Y-110954000D01*
X114531000Y-105063000D02*
X114531000Y-107020000D01*
X114531000Y-108980000D02*
X114531000Y-110937000D01*
X114571000Y-105081000D02*
X114571000Y-107020000D01*
X114571000Y-108980000D02*
X114571000Y-110919000D01*
X114611000Y-105099000D02*
X114611000Y-107020000D01*
X114611000Y-108980000D02*
X114611000Y-110901000D01*
X114651000Y-105118000D02*
X114651000Y-107020000D01*
X114651000Y-108980000D02*
X114651000Y-110882000D01*
X114691000Y-105137000D02*
X114691000Y-107020000D01*
X114691000Y-108980000D02*
X114691000Y-110863000D01*
X114731000Y-105157000D02*
X114731000Y-107020000D01*
X114731000Y-108980000D02*
X114731000Y-110843000D01*
X114771000Y-105178000D02*
X114771000Y-107020000D01*
X114771000Y-108980000D02*
X114771000Y-110822000D01*
X114811000Y-105200000D02*
X114811000Y-107020000D01*
X114811000Y-108980000D02*
X114811000Y-110800000D01*
X114851000Y-105222000D02*
X114851000Y-107020000D01*
X114851000Y-108980000D02*
X114851000Y-110778000D01*
X114891000Y-105245000D02*
X114891000Y-107020000D01*
X114891000Y-108980000D02*
X114891000Y-110755000D01*
X114931000Y-105269000D02*
X114931000Y-107020000D01*
X114931000Y-108980000D02*
X114931000Y-110731000D01*
X114971000Y-105294000D02*
X114971000Y-107020000D01*
X114971000Y-108980000D02*
X114971000Y-110706000D01*
X115011000Y-105319000D02*
X115011000Y-107020000D01*
X115011000Y-108980000D02*
X115011000Y-110681000D01*
X115051000Y-105346000D02*
X115051000Y-107020000D01*
X115051000Y-108980000D02*
X115051000Y-110654000D01*
X115091000Y-105373000D02*
X115091000Y-107020000D01*
X115091000Y-108980000D02*
X115091000Y-110627000D01*
X115131000Y-105401000D02*
X115131000Y-107020000D01*
X115131000Y-108980000D02*
X115131000Y-110599000D01*
X115171000Y-105430000D02*
X115171000Y-107020000D01*
X115171000Y-108980000D02*
X115171000Y-110570000D01*
X115211000Y-105460000D02*
X115211000Y-107020000D01*
X115211000Y-108980000D02*
X115211000Y-110540000D01*
X115251000Y-105490000D02*
X115251000Y-107020000D01*
X115251000Y-108980000D02*
X115251000Y-110510000D01*
X115291000Y-105522000D02*
X115291000Y-107020000D01*
X115291000Y-108980000D02*
X115291000Y-110478000D01*
X115331000Y-105555000D02*
X115331000Y-107020000D01*
X115331000Y-108980000D02*
X115331000Y-110445000D01*
X115371000Y-105589000D02*
X115371000Y-107020000D01*
X115371000Y-108980000D02*
X115371000Y-110411000D01*
X115411000Y-105625000D02*
X115411000Y-107020000D01*
X115411000Y-108980000D02*
X115411000Y-110375000D01*
X115451000Y-105661000D02*
X115451000Y-107020000D01*
X115451000Y-108980000D02*
X115451000Y-110339000D01*
X115491000Y-105699000D02*
X115491000Y-110301000D01*
X115531000Y-105738000D02*
X115531000Y-110262000D01*
X115571000Y-105778000D02*
X115571000Y-110222000D01*
X115611000Y-105820000D02*
X115611000Y-110180000D01*
X115651000Y-105863000D02*
X115651000Y-110137000D01*
X115691000Y-105908000D02*
X115691000Y-110092000D01*
X115731000Y-105955000D02*
X115731000Y-110045000D01*
X115771000Y-106003000D02*
X115771000Y-109997000D01*
X115811000Y-106054000D02*
X115811000Y-109946000D01*
X115851000Y-106106000D02*
X115851000Y-109894000D01*
X115891000Y-106161000D02*
X115891000Y-109839000D01*
X115931000Y-106219000D02*
X115931000Y-109781000D01*
X115971000Y-106279000D02*
X115971000Y-109721000D01*
X116011000Y-106342000D02*
X116011000Y-109658000D01*
X116051000Y-106409000D02*
X116051000Y-109591000D01*
X116091000Y-106480000D02*
X116091000Y-109520000D01*
X116131000Y-106555000D02*
X116131000Y-109445000D01*
X116171000Y-106636000D02*
X116171000Y-109364000D01*
X116211000Y-106722000D02*
X116211000Y-109278000D01*
X116251000Y-106816000D02*
X116251000Y-109184000D01*
X116291000Y-106919000D02*
X116291000Y-109081000D01*
X116331000Y-107034000D02*
X116331000Y-108966000D01*
X116371000Y-107166000D02*
X116371000Y-108834000D01*
X116411000Y-107324000D02*
X116411000Y-108676000D01*
X116451000Y-107532000D02*
X116451000Y-108468000D01*
X109800000Y-108000000D02*
X111000000Y-108000000D01*
X110400000Y-107350000D02*
X110400000Y-108650000D01*
X103720000Y-117850000D02*
X103590000Y-117850000D01*
X103590000Y-117850000D02*
X103590000Y-112530000D01*
X103590000Y-112530000D02*
X103720000Y-112530000D01*
X106280000Y-117850000D02*
X106410000Y-117850000D01*
X106410000Y-117850000D02*
X106410000Y-112530000D01*
X106410000Y-112530000D02*
X106280000Y-112530000D01*
X103590000Y-117010000D02*
X106410000Y-117010000D01*
X63460000Y-67460000D02*
X73620000Y-67460000D01*
X63460000Y-66190000D02*
X63460000Y-73810000D01*
X63460000Y-73810000D02*
X73620000Y-73810000D01*
X73620000Y-73810000D02*
X73620000Y-66190000D01*
X73620000Y-66190000D02*
X63460000Y-66190000D01*
X82540000Y-128540000D02*
X72380000Y-128540000D01*
X82540000Y-129810000D02*
X82540000Y-122190000D01*
X82540000Y-122190000D02*
X72380000Y-122190000D01*
X72380000Y-122190000D02*
X72380000Y-129810000D01*
X72380000Y-129810000D02*
X82540000Y-129810000D01*
X117840000Y-98000000D02*
G75*
G03X117840000Y-98000000I-4090000J0D01*
G01*
X113750000Y-93950000D02*
X113750000Y-102050000D01*
X113790000Y-93950000D02*
X113790000Y-102050000D01*
X113830000Y-93950000D02*
X113830000Y-102050000D01*
X113870000Y-93951000D02*
X113870000Y-102049000D01*
X113910000Y-93953000D02*
X113910000Y-102047000D01*
X113950000Y-93954000D02*
X113950000Y-102046000D01*
X113990000Y-93957000D02*
X113990000Y-102043000D01*
X114030000Y-93959000D02*
X114030000Y-102041000D01*
X114070000Y-93962000D02*
X114070000Y-102038000D01*
X114110000Y-93965000D02*
X114110000Y-102035000D01*
X114150000Y-93969000D02*
X114150000Y-102031000D01*
X114190000Y-93973000D02*
X114190000Y-102027000D01*
X114230000Y-93978000D02*
X114230000Y-102022000D01*
X114270000Y-93983000D02*
X114270000Y-102017000D01*
X114310000Y-93988000D02*
X114310000Y-102012000D01*
X114350000Y-93994000D02*
X114350000Y-102006000D01*
X114390000Y-94000000D02*
X114390000Y-102000000D01*
X114430000Y-94006000D02*
X114430000Y-101994000D01*
X114471000Y-94013000D02*
X114471000Y-101987000D01*
X114511000Y-94021000D02*
X114511000Y-101979000D01*
X114551000Y-94029000D02*
X114551000Y-97020000D01*
X114551000Y-98980000D02*
X114551000Y-101971000D01*
X114591000Y-94037000D02*
X114591000Y-97020000D01*
X114591000Y-98980000D02*
X114591000Y-101963000D01*
X114631000Y-94045000D02*
X114631000Y-97020000D01*
X114631000Y-98980000D02*
X114631000Y-101955000D01*
X114671000Y-94054000D02*
X114671000Y-97020000D01*
X114671000Y-98980000D02*
X114671000Y-101946000D01*
X114711000Y-94064000D02*
X114711000Y-97020000D01*
X114711000Y-98980000D02*
X114711000Y-101936000D01*
X114751000Y-94074000D02*
X114751000Y-97020000D01*
X114751000Y-98980000D02*
X114751000Y-101926000D01*
X114791000Y-94084000D02*
X114791000Y-97020000D01*
X114791000Y-98980000D02*
X114791000Y-101916000D01*
X114831000Y-94095000D02*
X114831000Y-97020000D01*
X114831000Y-98980000D02*
X114831000Y-101905000D01*
X114871000Y-94106000D02*
X114871000Y-97020000D01*
X114871000Y-98980000D02*
X114871000Y-101894000D01*
X114911000Y-94117000D02*
X114911000Y-97020000D01*
X114911000Y-98980000D02*
X114911000Y-101883000D01*
X114951000Y-94130000D02*
X114951000Y-97020000D01*
X114951000Y-98980000D02*
X114951000Y-101870000D01*
X114991000Y-94142000D02*
X114991000Y-97020000D01*
X114991000Y-98980000D02*
X114991000Y-101858000D01*
X115031000Y-94155000D02*
X115031000Y-97020000D01*
X115031000Y-98980000D02*
X115031000Y-101845000D01*
X115071000Y-94168000D02*
X115071000Y-97020000D01*
X115071000Y-98980000D02*
X115071000Y-101832000D01*
X115111000Y-94182000D02*
X115111000Y-97020000D01*
X115111000Y-98980000D02*
X115111000Y-101818000D01*
X115151000Y-94197000D02*
X115151000Y-97020000D01*
X115151000Y-98980000D02*
X115151000Y-101803000D01*
X115191000Y-94211000D02*
X115191000Y-97020000D01*
X115191000Y-98980000D02*
X115191000Y-101789000D01*
X115231000Y-94227000D02*
X115231000Y-97020000D01*
X115231000Y-98980000D02*
X115231000Y-101773000D01*
X115271000Y-94242000D02*
X115271000Y-97020000D01*
X115271000Y-98980000D02*
X115271000Y-101758000D01*
X115311000Y-94259000D02*
X115311000Y-97020000D01*
X115311000Y-98980000D02*
X115311000Y-101741000D01*
X115351000Y-94275000D02*
X115351000Y-97020000D01*
X115351000Y-98980000D02*
X115351000Y-101725000D01*
X115391000Y-94293000D02*
X115391000Y-97020000D01*
X115391000Y-98980000D02*
X115391000Y-101707000D01*
X115431000Y-94310000D02*
X115431000Y-97020000D01*
X115431000Y-98980000D02*
X115431000Y-101690000D01*
X115471000Y-94329000D02*
X115471000Y-97020000D01*
X115471000Y-98980000D02*
X115471000Y-101671000D01*
X115511000Y-94348000D02*
X115511000Y-97020000D01*
X115511000Y-98980000D02*
X115511000Y-101652000D01*
X115551000Y-94367000D02*
X115551000Y-97020000D01*
X115551000Y-98980000D02*
X115551000Y-101633000D01*
X115591000Y-94387000D02*
X115591000Y-97020000D01*
X115591000Y-98980000D02*
X115591000Y-101613000D01*
X115631000Y-94407000D02*
X115631000Y-97020000D01*
X115631000Y-98980000D02*
X115631000Y-101593000D01*
X115671000Y-94428000D02*
X115671000Y-97020000D01*
X115671000Y-98980000D02*
X115671000Y-101572000D01*
X115711000Y-94450000D02*
X115711000Y-97020000D01*
X115711000Y-98980000D02*
X115711000Y-101550000D01*
X115751000Y-94472000D02*
X115751000Y-97020000D01*
X115751000Y-98980000D02*
X115751000Y-101528000D01*
X115791000Y-94495000D02*
X115791000Y-97020000D01*
X115791000Y-98980000D02*
X115791000Y-101505000D01*
X115831000Y-94518000D02*
X115831000Y-97020000D01*
X115831000Y-98980000D02*
X115831000Y-101482000D01*
X115871000Y-94542000D02*
X115871000Y-97020000D01*
X115871000Y-98980000D02*
X115871000Y-101458000D01*
X115911000Y-94566000D02*
X115911000Y-97020000D01*
X115911000Y-98980000D02*
X115911000Y-101434000D01*
X115951000Y-94592000D02*
X115951000Y-97020000D01*
X115951000Y-98980000D02*
X115951000Y-101408000D01*
X115991000Y-94617000D02*
X115991000Y-97020000D01*
X115991000Y-98980000D02*
X115991000Y-101383000D01*
X116031000Y-94644000D02*
X116031000Y-97020000D01*
X116031000Y-98980000D02*
X116031000Y-101356000D01*
X116071000Y-94671000D02*
X116071000Y-97020000D01*
X116071000Y-98980000D02*
X116071000Y-101329000D01*
X116111000Y-94699000D02*
X116111000Y-97020000D01*
X116111000Y-98980000D02*
X116111000Y-101301000D01*
X116151000Y-94728000D02*
X116151000Y-97020000D01*
X116151000Y-98980000D02*
X116151000Y-101272000D01*
X116191000Y-94757000D02*
X116191000Y-97020000D01*
X116191000Y-98980000D02*
X116191000Y-101243000D01*
X116231000Y-94787000D02*
X116231000Y-97020000D01*
X116231000Y-98980000D02*
X116231000Y-101213000D01*
X116271000Y-94818000D02*
X116271000Y-97020000D01*
X116271000Y-98980000D02*
X116271000Y-101182000D01*
X116311000Y-94850000D02*
X116311000Y-97020000D01*
X116311000Y-98980000D02*
X116311000Y-101150000D01*
X116351000Y-94882000D02*
X116351000Y-97020000D01*
X116351000Y-98980000D02*
X116351000Y-101118000D01*
X116391000Y-94916000D02*
X116391000Y-97020000D01*
X116391000Y-98980000D02*
X116391000Y-101084000D01*
X116431000Y-94950000D02*
X116431000Y-97020000D01*
X116431000Y-98980000D02*
X116431000Y-101050000D01*
X116471000Y-94985000D02*
X116471000Y-97020000D01*
X116471000Y-98980000D02*
X116471000Y-101015000D01*
X116511000Y-95021000D02*
X116511000Y-100979000D01*
X116551000Y-95058000D02*
X116551000Y-100942000D01*
X116591000Y-95096000D02*
X116591000Y-100904000D01*
X116631000Y-95135000D02*
X116631000Y-100865000D01*
X116671000Y-95176000D02*
X116671000Y-100824000D01*
X116711000Y-95217000D02*
X116711000Y-100783000D01*
X116751000Y-95260000D02*
X116751000Y-100740000D01*
X116791000Y-95303000D02*
X116791000Y-100697000D01*
X116831000Y-95348000D02*
X116831000Y-100652000D01*
X116871000Y-95395000D02*
X116871000Y-100605000D01*
X116911000Y-95443000D02*
X116911000Y-100557000D01*
X116951000Y-95492000D02*
X116951000Y-100508000D01*
X116991000Y-95543000D02*
X116991000Y-100457000D01*
X117031000Y-95596000D02*
X117031000Y-100404000D01*
X117071000Y-95651000D02*
X117071000Y-100349000D01*
X117111000Y-95707000D02*
X117111000Y-100293000D01*
X117151000Y-95766000D02*
X117151000Y-100234000D01*
X117191000Y-95827000D02*
X117191000Y-100173000D01*
X117231000Y-95891000D02*
X117231000Y-100109000D01*
X117271000Y-95957000D02*
X117271000Y-100043000D01*
X117311000Y-96026000D02*
X117311000Y-99974000D01*
X117351000Y-96098000D02*
X117351000Y-99902000D01*
X117391000Y-96174000D02*
X117391000Y-99826000D01*
X117431000Y-96255000D02*
X117431000Y-99745000D01*
X117471000Y-96340000D02*
X117471000Y-99660000D01*
X117511000Y-96430000D02*
X117511000Y-99570000D01*
X117551000Y-96527000D02*
X117551000Y-99473000D01*
X117591000Y-96631000D02*
X117591000Y-99369000D01*
X117631000Y-96746000D02*
X117631000Y-99254000D01*
X117671000Y-96873000D02*
X117671000Y-99127000D01*
X117711000Y-97017000D02*
X117711000Y-98983000D01*
X117751000Y-97186000D02*
X117751000Y-98814000D01*
X117791000Y-97402000D02*
X117791000Y-98598000D01*
X117831000Y-97754000D02*
X117831000Y-98246000D01*
X109800000Y-98000000D02*
X111000000Y-98000000D01*
X110400000Y-97350000D02*
X110400000Y-98650000D01*
X96540000Y-128540000D02*
X86380000Y-128540000D01*
X96540000Y-129810000D02*
X96540000Y-122190000D01*
X96540000Y-122190000D02*
X86380000Y-122190000D01*
X86380000Y-122190000D02*
X86380000Y-129810000D01*
X86380000Y-129810000D02*
X96540000Y-129810000D01*
X112460000Y-129810000D02*
X112460000Y-122190000D01*
X127700000Y-129810000D02*
X127700000Y-122190000D01*
X112460000Y-128540000D02*
X127700000Y-128540000D01*
X112460000Y-122190000D02*
X127700000Y-122190000D01*
X112460000Y-129810000D02*
X127700000Y-129810000D01*
X64020000Y-83400000D02*
X63690000Y-83400000D01*
X63690000Y-83400000D02*
X63690000Y-76980000D01*
X63690000Y-76980000D02*
X64020000Y-76980000D01*
X65980000Y-83400000D02*
X66310000Y-83400000D01*
X66310000Y-83400000D02*
X66310000Y-76980000D01*
X66310000Y-76980000D02*
X65980000Y-76980000D01*
X59980000Y-76980000D02*
X60310000Y-76980000D01*
X60310000Y-76980000D02*
X60310000Y-83400000D01*
X60310000Y-83400000D02*
X59980000Y-83400000D01*
X58020000Y-76980000D02*
X57690000Y-76980000D01*
X57690000Y-76980000D02*
X57690000Y-83400000D01*
X57690000Y-83400000D02*
X58020000Y-83400000D01*
X120020000Y-88020000D02*
X119690000Y-88020000D01*
X119690000Y-88020000D02*
X119690000Y-81600000D01*
X119690000Y-81600000D02*
X120020000Y-81600000D01*
X121980000Y-88020000D02*
X122310000Y-88020000D01*
X122310000Y-88020000D02*
X122310000Y-81600000D01*
X122310000Y-81600000D02*
X121980000Y-81600000D01*
X58980000Y-93020000D02*
X58980000Y-92690000D01*
X58980000Y-92690000D02*
X65400000Y-92690000D01*
X65400000Y-92690000D02*
X65400000Y-93020000D01*
X58980000Y-94980000D02*
X58980000Y-95310000D01*
X58980000Y-95310000D02*
X65400000Y-95310000D01*
X65400000Y-95310000D02*
X65400000Y-94980000D01*
X58980000Y-88020000D02*
X58980000Y-87690000D01*
X58980000Y-87690000D02*
X65400000Y-87690000D01*
X65400000Y-87690000D02*
X65400000Y-88020000D01*
X58980000Y-89980000D02*
X58980000Y-90310000D01*
X58980000Y-90310000D02*
X65400000Y-90310000D01*
X65400000Y-90310000D02*
X65400000Y-89980000D01*
X74980000Y-112020000D02*
X74980000Y-111690000D01*
X74980000Y-111690000D02*
X81400000Y-111690000D01*
X81400000Y-111690000D02*
X81400000Y-112020000D01*
X74980000Y-113980000D02*
X74980000Y-114310000D01*
X74980000Y-114310000D02*
X81400000Y-114310000D01*
X81400000Y-114310000D02*
X81400000Y-113980000D01*
X127980000Y-81600000D02*
X128310000Y-81600000D01*
X128310000Y-81600000D02*
X128310000Y-88020000D01*
X128310000Y-88020000D02*
X127980000Y-88020000D01*
X126020000Y-81600000D02*
X125690000Y-81600000D01*
X125690000Y-81600000D02*
X125690000Y-88020000D01*
X125690000Y-88020000D02*
X126020000Y-88020000D01*
X58980000Y-98020000D02*
X58980000Y-97690000D01*
X58980000Y-97690000D02*
X65400000Y-97690000D01*
X65400000Y-97690000D02*
X65400000Y-98020000D01*
X58980000Y-99980000D02*
X58980000Y-100310000D01*
X58980000Y-100310000D02*
X65400000Y-100310000D01*
X65400000Y-100310000D02*
X65400000Y-99980000D01*
X104020000Y-106400000D02*
X103690000Y-106400000D01*
X103690000Y-106400000D02*
X103690000Y-99980000D01*
X103690000Y-99980000D02*
X104020000Y-99980000D01*
X105980000Y-106400000D02*
X106310000Y-106400000D01*
X106310000Y-106400000D02*
X106310000Y-99980000D01*
X106310000Y-99980000D02*
X105980000Y-99980000D01*
X65400000Y-118980000D02*
X65400000Y-119310000D01*
X65400000Y-119310000D02*
X58980000Y-119310000D01*
X58980000Y-119310000D02*
X58980000Y-118980000D01*
X65400000Y-117020000D02*
X65400000Y-116690000D01*
X65400000Y-116690000D02*
X58980000Y-116690000D01*
X58980000Y-116690000D02*
X58980000Y-117020000D01*
X76020000Y-83400000D02*
X75690000Y-83400000D01*
X75690000Y-83400000D02*
X75690000Y-76980000D01*
X75690000Y-76980000D02*
X76020000Y-76980000D01*
X77980000Y-83400000D02*
X78310000Y-83400000D01*
X78310000Y-83400000D02*
X78310000Y-76980000D01*
X78310000Y-76980000D02*
X77980000Y-76980000D01*
X71980000Y-76980000D02*
X72310000Y-76980000D01*
X72310000Y-76980000D02*
X72310000Y-83400000D01*
X72310000Y-83400000D02*
X71980000Y-83400000D01*
X70020000Y-76980000D02*
X69690000Y-76980000D01*
X69690000Y-76980000D02*
X69690000Y-83400000D01*
X69690000Y-83400000D02*
X70020000Y-83400000D01*
X81400000Y-118980000D02*
X81400000Y-119310000D01*
X81400000Y-119310000D02*
X74980000Y-119310000D01*
X74980000Y-119310000D02*
X74980000Y-118980000D01*
X81400000Y-117020000D02*
X81400000Y-116690000D01*
X81400000Y-116690000D02*
X74980000Y-116690000D01*
X74980000Y-116690000D02*
X74980000Y-117020000D01*
X88850000Y-100190000D02*
X88850000Y-100440000D01*
X88850000Y-100440000D02*
X88600000Y-100440000D01*
X88600000Y-100440000D02*
X88600000Y-100690000D01*
X88600000Y-100690000D02*
X87350000Y-100690000D01*
X87350000Y-100690000D02*
X87350000Y-100440000D01*
X87350000Y-100440000D02*
X83700000Y-100440000D01*
X83700000Y-100440000D02*
X83700000Y-100690000D01*
X83700000Y-100690000D02*
X82400000Y-100690000D01*
X82400000Y-100690000D02*
X82400000Y-100440000D01*
X82400000Y-100440000D02*
X82100000Y-100440000D01*
X82100000Y-100440000D02*
X82100000Y-100190000D01*
X86650000Y-93140000D02*
X87550000Y-93140000D01*
X87550000Y-93140000D02*
X88900000Y-94640000D01*
X88900000Y-94640000D02*
X88900000Y-97940000D01*
X82100000Y-97940000D02*
X82100000Y-94590000D01*
X82100000Y-94590000D02*
X83450000Y-93140000D01*
X83450000Y-93140000D02*
X84350000Y-93140000D01*
X99350000Y-100190000D02*
X99350000Y-100440000D01*
X99350000Y-100440000D02*
X99100000Y-100440000D01*
X99100000Y-100440000D02*
X99100000Y-100690000D01*
X99100000Y-100690000D02*
X97850000Y-100690000D01*
X97850000Y-100690000D02*
X97850000Y-100440000D01*
X97850000Y-100440000D02*
X94200000Y-100440000D01*
X94200000Y-100440000D02*
X94200000Y-100690000D01*
X94200000Y-100690000D02*
X92900000Y-100690000D01*
X92900000Y-100690000D02*
X92900000Y-100440000D01*
X92900000Y-100440000D02*
X92600000Y-100440000D01*
X92600000Y-100440000D02*
X92600000Y-100190000D01*
X97150000Y-93140000D02*
X98050000Y-93140000D01*
X98050000Y-93140000D02*
X99400000Y-94640000D01*
X99400000Y-94640000D02*
X99400000Y-97940000D01*
X92600000Y-97940000D02*
X92600000Y-94590000D01*
X92600000Y-94590000D02*
X93950000Y-93140000D01*
X93950000Y-93140000D02*
X94850000Y-93140000D01*
X115350000Y-76190000D02*
X115350000Y-76440000D01*
X115350000Y-76440000D02*
X115100000Y-76440000D01*
X115100000Y-76440000D02*
X115100000Y-76690000D01*
X115100000Y-76690000D02*
X113850000Y-76690000D01*
X113850000Y-76690000D02*
X113850000Y-76440000D01*
X113850000Y-76440000D02*
X110200000Y-76440000D01*
X110200000Y-76440000D02*
X110200000Y-76690000D01*
X110200000Y-76690000D02*
X108900000Y-76690000D01*
X108900000Y-76690000D02*
X108900000Y-76440000D01*
X108900000Y-76440000D02*
X108600000Y-76440000D01*
X108600000Y-76440000D02*
X108600000Y-76190000D01*
X113150000Y-69140000D02*
X114050000Y-69140000D01*
X114050000Y-69140000D02*
X115400000Y-70640000D01*
X115400000Y-70640000D02*
X115400000Y-73940000D01*
X108600000Y-73940000D02*
X108600000Y-70590000D01*
X108600000Y-70590000D02*
X109950000Y-69140000D01*
X109950000Y-69140000D02*
X110850000Y-69140000D01*
X93000000Y-57950000D02*
X93000000Y-60300000D01*
X98050000Y-56500000D02*
X98050000Y-60050000D01*
X96300000Y-56500000D02*
X98050000Y-56500000D01*
X89700000Y-56500000D02*
X87950000Y-56500000D01*
X87950000Y-56500000D02*
X87950000Y-60100000D01*
X93000000Y-57900000D02*
X93950000Y-58900000D01*
X93050000Y-57900000D02*
X92050000Y-58850000D01*
X89700000Y-57900000D02*
X89700000Y-55200000D01*
X89700000Y-55200000D02*
X96300000Y-55200000D01*
X96300000Y-55200000D02*
X96300000Y-57900000D01*
X96300000Y-57900000D02*
X89700000Y-57900000D01*
X77850000Y-95150000D02*
X77850000Y-95400000D01*
X77850000Y-95400000D02*
X77600000Y-95400000D01*
X77600000Y-95400000D02*
X77600000Y-95650000D01*
X77600000Y-95650000D02*
X76350000Y-95650000D01*
X76350000Y-95650000D02*
X76350000Y-95400000D01*
X76350000Y-95400000D02*
X72700000Y-95400000D01*
X72700000Y-95400000D02*
X72700000Y-95650000D01*
X72700000Y-95650000D02*
X71400000Y-95650000D01*
X71400000Y-95650000D02*
X71400000Y-95400000D01*
X71400000Y-95400000D02*
X71100000Y-95400000D01*
X71100000Y-95400000D02*
X71100000Y-95150000D01*
X75650000Y-88100000D02*
X76550000Y-88100000D01*
X76550000Y-88100000D02*
X77900000Y-89600000D01*
X77900000Y-89600000D02*
X77900000Y-92900000D01*
X71100000Y-92900000D02*
X71100000Y-89550000D01*
X71100000Y-89550000D02*
X72450000Y-88100000D01*
X72450000Y-88100000D02*
X73350000Y-88100000D01*
X77850000Y-106150000D02*
X77850000Y-106400000D01*
X77850000Y-106400000D02*
X77600000Y-106400000D01*
X77600000Y-106400000D02*
X77600000Y-106650000D01*
X77600000Y-106650000D02*
X76350000Y-106650000D01*
X76350000Y-106650000D02*
X76350000Y-106400000D01*
X76350000Y-106400000D02*
X72700000Y-106400000D01*
X72700000Y-106400000D02*
X72700000Y-106650000D01*
X72700000Y-106650000D02*
X71400000Y-106650000D01*
X71400000Y-106650000D02*
X71400000Y-106400000D01*
X71400000Y-106400000D02*
X71100000Y-106400000D01*
X71100000Y-106400000D02*
X71100000Y-106150000D01*
X75650000Y-99100000D02*
X76550000Y-99100000D01*
X76550000Y-99100000D02*
X77900000Y-100600000D01*
X77900000Y-100600000D02*
X77900000Y-103900000D01*
X71100000Y-103900000D02*
X71100000Y-100550000D01*
X71100000Y-100550000D02*
X72450000Y-99100000D01*
X72450000Y-99100000D02*
X73350000Y-99100000D01*
X127850000Y-99150000D02*
X127850000Y-99400000D01*
X127850000Y-99400000D02*
X127600000Y-99400000D01*
X127600000Y-99400000D02*
X127600000Y-99650000D01*
X127600000Y-99650000D02*
X126350000Y-99650000D01*
X126350000Y-99650000D02*
X126350000Y-99400000D01*
X126350000Y-99400000D02*
X122700000Y-99400000D01*
X122700000Y-99400000D02*
X122700000Y-99650000D01*
X122700000Y-99650000D02*
X121400000Y-99650000D01*
X121400000Y-99650000D02*
X121400000Y-99400000D01*
X121400000Y-99400000D02*
X121100000Y-99400000D01*
X121100000Y-99400000D02*
X121100000Y-99150000D01*
X125650000Y-92100000D02*
X126550000Y-92100000D01*
X126550000Y-92100000D02*
X127900000Y-93600000D01*
X127900000Y-93600000D02*
X127900000Y-96900000D01*
X121100000Y-96900000D02*
X121100000Y-93550000D01*
X121100000Y-93550000D02*
X122450000Y-92100000D01*
X122450000Y-92100000D02*
X123350000Y-92100000D01*
X63190000Y-103050000D02*
G75*
G02X61190000Y-103050000I-1000000J0D01*
G01*
X61190000Y-103050000D02*
X59540000Y-103050000D01*
X59540000Y-103050000D02*
X59540000Y-113330000D01*
X59540000Y-113330000D02*
X64840000Y-113330000D01*
X64840000Y-113330000D02*
X64840000Y-103050000D01*
X64840000Y-103050000D02*
X63190000Y-103050000D01*
X93810000Y-108670000D02*
G75*
G02X91810000Y-108670000I-1000000J0D01*
G01*
X91810000Y-108670000D02*
X90160000Y-108670000D01*
X90160000Y-108670000D02*
X90160000Y-118950000D01*
X90160000Y-118950000D02*
X95460000Y-118950000D01*
X95460000Y-118950000D02*
X95460000Y-108670000D01*
X95460000Y-108670000D02*
X93810000Y-108670000D01*
X68540000Y-128540000D02*
X58380000Y-128540000D01*
X68540000Y-129810000D02*
X68540000Y-122190000D01*
X68540000Y-122190000D02*
X58380000Y-122190000D01*
X58380000Y-122190000D02*
X58380000Y-129810000D01*
X58380000Y-129810000D02*
X68540000Y-129810000D01*
X112190000Y-80670000D02*
G75*
G02X110190000Y-80670000I-1000000J0D01*
G01*
X110190000Y-80670000D02*
X108540000Y-80670000D01*
X108540000Y-80670000D02*
X108540000Y-90950000D01*
X108540000Y-90950000D02*
X113840000Y-90950000D01*
X113840000Y-90950000D02*
X113840000Y-80670000D01*
X113840000Y-80670000D02*
X112190000Y-80670000D01*
X125720000Y-117850000D02*
X125590000Y-117850000D01*
X125590000Y-117850000D02*
X125590000Y-112530000D01*
X125590000Y-112530000D02*
X125720000Y-112530000D01*
X128280000Y-117850000D02*
X128410000Y-117850000D01*
X128410000Y-117850000D02*
X128410000Y-112530000D01*
X128410000Y-112530000D02*
X128280000Y-112530000D01*
X125590000Y-117010000D02*
X128410000Y-117010000D01*
X119720000Y-117850000D02*
X119590000Y-117850000D01*
X119590000Y-117850000D02*
X119590000Y-112530000D01*
X119590000Y-112530000D02*
X119720000Y-112530000D01*
X122280000Y-117850000D02*
X122410000Y-117850000D01*
X122410000Y-117850000D02*
X122410000Y-112530000D01*
X122410000Y-112530000D02*
X122280000Y-112530000D01*
X119590000Y-117010000D02*
X122410000Y-117010000D01*
D13*
X120833334Y-67857143D02*
X120785715Y-67904762D01*
X120642858Y-67952381D01*
X120547620Y-67952381D01*
X120404762Y-67904762D01*
X120309524Y-67809524D01*
X120261905Y-67714286D01*
X120214286Y-67523810D01*
X120214286Y-67380952D01*
X120261905Y-67190476D01*
X120309524Y-67095238D01*
X120404762Y-67000000D01*
X120547620Y-66952381D01*
X120642858Y-66952381D01*
X120785715Y-67000000D01*
X120833334Y-67047619D01*
X121785715Y-67952381D02*
X121214286Y-67952381D01*
X121500000Y-67952381D02*
X121500000Y-66952381D01*
X121404762Y-67095238D01*
X121309524Y-67190476D01*
X121214286Y-67238095D01*
X115733334Y-113857143D02*
X115685715Y-113904762D01*
X115542858Y-113952381D01*
X115447620Y-113952381D01*
X115304762Y-113904762D01*
X115209524Y-113809524D01*
X115161905Y-113714286D01*
X115114286Y-113523810D01*
X115114286Y-113380952D01*
X115161905Y-113190476D01*
X115209524Y-113095238D01*
X115304762Y-113000000D01*
X115447620Y-112952381D01*
X115542858Y-112952381D01*
X115685715Y-113000000D01*
X115733334Y-113047619D01*
X116114286Y-113047619D02*
X116161905Y-113000000D01*
X116257143Y-112952381D01*
X116495239Y-112952381D01*
X116590477Y-113000000D01*
X116638096Y-113047619D01*
X116685715Y-113142857D01*
X116685715Y-113238095D01*
X116638096Y-113380952D01*
X116066667Y-113952381D01*
X116685715Y-113952381D01*
X127233334Y-101857143D02*
X127185715Y-101904762D01*
X127042858Y-101952381D01*
X126947620Y-101952381D01*
X126804762Y-101904762D01*
X126709524Y-101809524D01*
X126661905Y-101714286D01*
X126614286Y-101523810D01*
X126614286Y-101380952D01*
X126661905Y-101190476D01*
X126709524Y-101095238D01*
X126804762Y-101000000D01*
X126947620Y-100952381D01*
X127042858Y-100952381D01*
X127185715Y-101000000D01*
X127233334Y-101047619D01*
X127566667Y-100952381D02*
X128185715Y-100952381D01*
X127852381Y-101333333D01*
X127995239Y-101333333D01*
X128090477Y-101380952D01*
X128138096Y-101428571D01*
X128185715Y-101523810D01*
X128185715Y-101761905D01*
X128138096Y-101857143D01*
X128090477Y-101904762D01*
X127995239Y-101952381D01*
X127709524Y-101952381D01*
X127614286Y-101904762D01*
X127566667Y-101857143D01*
X126833334Y-67857143D02*
X126785715Y-67904762D01*
X126642858Y-67952381D01*
X126547620Y-67952381D01*
X126404762Y-67904762D01*
X126309524Y-67809524D01*
X126261905Y-67714286D01*
X126214286Y-67523810D01*
X126214286Y-67380952D01*
X126261905Y-67190476D01*
X126309524Y-67095238D01*
X126404762Y-67000000D01*
X126547620Y-66952381D01*
X126642858Y-66952381D01*
X126785715Y-67000000D01*
X126833334Y-67047619D01*
X127690477Y-67285714D02*
X127690477Y-67952381D01*
X127452381Y-66904762D02*
X127214286Y-67619048D01*
X127833334Y-67619048D01*
X115733334Y-104857143D02*
X115685715Y-104904762D01*
X115542858Y-104952381D01*
X115447620Y-104952381D01*
X115304762Y-104904762D01*
X115209524Y-104809524D01*
X115161905Y-104714286D01*
X115114286Y-104523810D01*
X115114286Y-104380952D01*
X115161905Y-104190476D01*
X115209524Y-104095238D01*
X115304762Y-104000000D01*
X115447620Y-103952381D01*
X115542858Y-103952381D01*
X115685715Y-104000000D01*
X115733334Y-104047619D01*
X116638096Y-103952381D02*
X116161905Y-103952381D01*
X116114286Y-104428571D01*
X116161905Y-104380952D01*
X116257143Y-104333333D01*
X116495239Y-104333333D01*
X116590477Y-104380952D01*
X116638096Y-104428571D01*
X116685715Y-104523810D01*
X116685715Y-104761905D01*
X116638096Y-104857143D01*
X116590477Y-104904762D01*
X116495239Y-104952381D01*
X116257143Y-104952381D01*
X116161905Y-104904762D01*
X116114286Y-104857143D01*
X103042381Y-115928095D02*
X102042381Y-115928095D01*
X102042381Y-115690000D01*
X102090000Y-115547142D01*
X102185238Y-115451904D01*
X102280476Y-115404285D01*
X102470952Y-115356666D01*
X102613810Y-115356666D01*
X102804286Y-115404285D01*
X102899524Y-115451904D01*
X102994762Y-115547142D01*
X103042381Y-115690000D01*
X103042381Y-115928095D01*
X102042381Y-115023333D02*
X102042381Y-114404285D01*
X102423333Y-114737619D01*
X102423333Y-114594761D01*
X102470952Y-114499523D01*
X102518571Y-114451904D01*
X102613810Y-114404285D01*
X102851905Y-114404285D01*
X102947143Y-114451904D01*
X102994762Y-114499523D01*
X103042381Y-114594761D01*
X103042381Y-114880476D01*
X102994762Y-114975714D01*
X102947143Y-115023333D01*
X58857143Y-70702381D02*
X58857143Y-69702381D01*
X59095238Y-69702381D01*
X59238096Y-69750000D01*
X59333334Y-69845238D01*
X59380953Y-69940476D01*
X59428572Y-70130952D01*
X59428572Y-70273810D01*
X59380953Y-70464286D01*
X59333334Y-70559524D01*
X59238096Y-70654762D01*
X59095238Y-70702381D01*
X58857143Y-70702381D01*
X59857143Y-69702381D02*
X59857143Y-70511905D01*
X59904762Y-70607143D01*
X59952381Y-70654762D01*
X60047619Y-70702381D01*
X60238096Y-70702381D01*
X60333334Y-70654762D01*
X60380953Y-70607143D01*
X60428572Y-70511905D01*
X60428572Y-69702381D01*
X60761905Y-69702381D02*
X61333334Y-69702381D01*
X61047619Y-70702381D02*
X61047619Y-69702381D01*
X62190477Y-70702381D02*
X61619048Y-70702381D01*
X61904762Y-70702381D02*
X61904762Y-69702381D01*
X61809524Y-69845238D01*
X61714286Y-69940476D01*
X61619048Y-69988095D01*
X74833333Y-131452381D02*
X74833333Y-130452381D01*
X74833333Y-130928571D02*
X75404762Y-130928571D01*
X75404762Y-131452381D02*
X75404762Y-130452381D01*
X76023809Y-131452381D02*
X75928571Y-131404762D01*
X75880952Y-131357143D01*
X75833333Y-131261905D01*
X75833333Y-130976190D01*
X75880952Y-130880952D01*
X75928571Y-130833333D01*
X76023809Y-130785714D01*
X76166667Y-130785714D01*
X76261905Y-130833333D01*
X76309524Y-130880952D01*
X76357143Y-130976190D01*
X76357143Y-131261905D01*
X76309524Y-131357143D01*
X76261905Y-131404762D01*
X76166667Y-131452381D01*
X76023809Y-131452381D01*
X76785714Y-131452381D02*
X76785714Y-130785714D01*
X76785714Y-130976190D02*
X76833333Y-130880952D01*
X76880952Y-130833333D01*
X76976190Y-130785714D01*
X77071429Y-130785714D01*
X77404762Y-131452381D02*
X77404762Y-130785714D01*
X77404762Y-130452381D02*
X77357143Y-130500000D01*
X77404762Y-130547619D01*
X77452381Y-130500000D01*
X77404762Y-130452381D01*
X77404762Y-130547619D01*
X77785714Y-130785714D02*
X78309524Y-130785714D01*
X77785714Y-131452381D01*
X78309524Y-131452381D01*
X79214286Y-131452381D02*
X78642857Y-131452381D01*
X78928571Y-131452381D02*
X78928571Y-130452381D01*
X78833333Y-130595238D01*
X78738095Y-130690476D01*
X78642857Y-130738095D01*
X116304762Y-93852381D02*
X115828571Y-93852381D01*
X115828571Y-92852381D01*
X116590476Y-93566667D02*
X117066667Y-93566667D01*
X116495238Y-93852381D02*
X116828571Y-92852381D01*
X117161905Y-93852381D01*
X118019048Y-93852381D02*
X117447619Y-93852381D01*
X117733333Y-93852381D02*
X117733333Y-92852381D01*
X117638095Y-92995238D01*
X117542857Y-93090476D01*
X117447619Y-93138095D01*
X88976190Y-131452381D02*
X88976190Y-130452381D01*
X89357143Y-130452381D01*
X89452381Y-130500000D01*
X89500000Y-130547619D01*
X89547619Y-130642857D01*
X89547619Y-130785714D01*
X89500000Y-130880952D01*
X89452381Y-130928571D01*
X89357143Y-130976190D01*
X88976190Y-130976190D01*
X90357143Y-131404762D02*
X90261905Y-131452381D01*
X90071428Y-131452381D01*
X89976190Y-131404762D01*
X89928571Y-131309524D01*
X89928571Y-130928571D01*
X89976190Y-130833333D01*
X90071428Y-130785714D01*
X90261905Y-130785714D01*
X90357143Y-130833333D01*
X90404762Y-130928571D01*
X90404762Y-131023810D01*
X89928571Y-131119048D01*
X91261905Y-131452381D02*
X91261905Y-130928571D01*
X91214286Y-130833333D01*
X91119048Y-130785714D01*
X90928571Y-130785714D01*
X90833333Y-130833333D01*
X91261905Y-131404762D02*
X91166667Y-131452381D01*
X90928571Y-131452381D01*
X90833333Y-131404762D01*
X90785714Y-131309524D01*
X90785714Y-131214286D01*
X90833333Y-131119048D01*
X90928571Y-131071429D01*
X91166667Y-131071429D01*
X91261905Y-131023810D01*
X91738095Y-131452381D02*
X91738095Y-130452381D01*
X91833333Y-131071429D02*
X92119048Y-131452381D01*
X92119048Y-130785714D02*
X91738095Y-131166667D01*
X93071429Y-131452381D02*
X92500000Y-131452381D01*
X92785714Y-131452381D02*
X92785714Y-130452381D01*
X92690476Y-130595238D01*
X92595238Y-130690476D01*
X92500000Y-130738095D01*
X117547619Y-131452381D02*
X117547619Y-130452381D01*
X117928572Y-130452381D01*
X118023810Y-130500000D01*
X118071429Y-130547619D01*
X118119048Y-130642857D01*
X118119048Y-130785714D01*
X118071429Y-130880952D01*
X118023810Y-130928571D01*
X117928572Y-130976190D01*
X117547619Y-130976190D01*
X118690476Y-131452381D02*
X118595238Y-131404762D01*
X118547619Y-131357143D01*
X118500000Y-131261905D01*
X118500000Y-130976190D01*
X118547619Y-130880952D01*
X118595238Y-130833333D01*
X118690476Y-130785714D01*
X118833334Y-130785714D01*
X118928572Y-130833333D01*
X118976191Y-130880952D01*
X119023810Y-130976190D01*
X119023810Y-131261905D01*
X118976191Y-131357143D01*
X118928572Y-131404762D01*
X118833334Y-131452381D01*
X118690476Y-131452381D01*
X119357143Y-130785714D02*
X119547619Y-131452381D01*
X119738096Y-130976190D01*
X119928572Y-131452381D01*
X120119048Y-130785714D01*
X120880953Y-131404762D02*
X120785715Y-131452381D01*
X120595238Y-131452381D01*
X120500000Y-131404762D01*
X120452381Y-131309524D01*
X120452381Y-130928571D01*
X120500000Y-130833333D01*
X120595238Y-130785714D01*
X120785715Y-130785714D01*
X120880953Y-130833333D01*
X120928572Y-130928571D01*
X120928572Y-131023810D01*
X120452381Y-131119048D01*
X121357143Y-131452381D02*
X121357143Y-130785714D01*
X121357143Y-130976190D02*
X121404762Y-130880952D01*
X121452381Y-130833333D01*
X121547619Y-130785714D01*
X121642858Y-130785714D01*
X122500001Y-131452381D02*
X121928572Y-131452381D01*
X122214286Y-131452381D02*
X122214286Y-130452381D01*
X122119048Y-130595238D01*
X122023810Y-130690476D01*
X121928572Y-130738095D01*
X64833334Y-86232381D02*
X64500000Y-85756190D01*
X64261905Y-86232381D02*
X64261905Y-85232381D01*
X64642858Y-85232381D01*
X64738096Y-85280000D01*
X64785715Y-85327619D01*
X64833334Y-85422857D01*
X64833334Y-85565714D01*
X64785715Y-85660952D01*
X64738096Y-85708571D01*
X64642858Y-85756190D01*
X64261905Y-85756190D01*
X65785715Y-86232381D02*
X65214286Y-86232381D01*
X65500000Y-86232381D02*
X65500000Y-85232381D01*
X65404762Y-85375238D01*
X65309524Y-85470476D01*
X65214286Y-85518095D01*
X57352381Y-80356666D02*
X56876190Y-80690000D01*
X57352381Y-80928095D02*
X56352381Y-80928095D01*
X56352381Y-80547142D01*
X56400000Y-80451904D01*
X56447619Y-80404285D01*
X56542857Y-80356666D01*
X56685714Y-80356666D01*
X56780952Y-80404285D01*
X56828571Y-80451904D01*
X56876190Y-80547142D01*
X56876190Y-80928095D01*
X56447619Y-79975714D02*
X56400000Y-79928095D01*
X56352381Y-79832857D01*
X56352381Y-79594761D01*
X56400000Y-79499523D01*
X56447619Y-79451904D01*
X56542857Y-79404285D01*
X56638095Y-79404285D01*
X56780952Y-79451904D01*
X57352381Y-80023333D01*
X57352381Y-79404285D01*
X120833334Y-79452381D02*
X120500000Y-78976190D01*
X120261905Y-79452381D02*
X120261905Y-78452381D01*
X120642858Y-78452381D01*
X120738096Y-78500000D01*
X120785715Y-78547619D01*
X120833334Y-78642857D01*
X120833334Y-78785714D01*
X120785715Y-78880952D01*
X120738096Y-78928571D01*
X120642858Y-78976190D01*
X120261905Y-78976190D01*
X121166667Y-78452381D02*
X121785715Y-78452381D01*
X121452381Y-78833333D01*
X121595239Y-78833333D01*
X121690477Y-78880952D01*
X121738096Y-78928571D01*
X121785715Y-79023810D01*
X121785715Y-79261905D01*
X121738096Y-79357143D01*
X121690477Y-79404762D01*
X121595239Y-79452381D01*
X121309524Y-79452381D01*
X121214286Y-79404762D01*
X121166667Y-79357143D01*
X56952381Y-94166666D02*
X56476190Y-94500000D01*
X56952381Y-94738095D02*
X55952381Y-94738095D01*
X55952381Y-94357142D01*
X56000000Y-94261904D01*
X56047619Y-94214285D01*
X56142857Y-94166666D01*
X56285714Y-94166666D01*
X56380952Y-94214285D01*
X56428571Y-94261904D01*
X56476190Y-94357142D01*
X56476190Y-94738095D01*
X56285714Y-93309523D02*
X56952381Y-93309523D01*
X55904762Y-93547619D02*
X56619048Y-93785714D01*
X56619048Y-93166666D01*
X56952381Y-89066666D02*
X56476190Y-89400000D01*
X56952381Y-89638095D02*
X55952381Y-89638095D01*
X55952381Y-89257142D01*
X56000000Y-89161904D01*
X56047619Y-89114285D01*
X56142857Y-89066666D01*
X56285714Y-89066666D01*
X56380952Y-89114285D01*
X56428571Y-89161904D01*
X56476190Y-89257142D01*
X56476190Y-89638095D01*
X55952381Y-88161904D02*
X55952381Y-88638095D01*
X56428571Y-88685714D01*
X56380952Y-88638095D01*
X56333333Y-88542857D01*
X56333333Y-88304761D01*
X56380952Y-88209523D01*
X56428571Y-88161904D01*
X56523810Y-88114285D01*
X56761905Y-88114285D01*
X56857143Y-88161904D01*
X56904762Y-88209523D01*
X56952381Y-88304761D01*
X56952381Y-88542857D01*
X56904762Y-88638095D01*
X56857143Y-88685714D01*
X77613334Y-111452381D02*
X77280000Y-110976190D01*
X77041905Y-111452381D02*
X77041905Y-110452381D01*
X77422858Y-110452381D01*
X77518096Y-110500000D01*
X77565715Y-110547619D01*
X77613334Y-110642857D01*
X77613334Y-110785714D01*
X77565715Y-110880952D01*
X77518096Y-110928571D01*
X77422858Y-110976190D01*
X77041905Y-110976190D01*
X78470477Y-110452381D02*
X78280000Y-110452381D01*
X78184762Y-110500000D01*
X78137143Y-110547619D01*
X78041905Y-110690476D01*
X77994286Y-110880952D01*
X77994286Y-111261905D01*
X78041905Y-111357143D01*
X78089524Y-111404762D01*
X78184762Y-111452381D01*
X78375239Y-111452381D01*
X78470477Y-111404762D01*
X78518096Y-111357143D01*
X78565715Y-111261905D01*
X78565715Y-111023810D01*
X78518096Y-110928571D01*
X78470477Y-110880952D01*
X78375239Y-110833333D01*
X78184762Y-110833333D01*
X78089524Y-110880952D01*
X78041905Y-110928571D01*
X77994286Y-111023810D01*
X126833334Y-79452381D02*
X126500000Y-78976190D01*
X126261905Y-79452381D02*
X126261905Y-78452381D01*
X126642858Y-78452381D01*
X126738096Y-78500000D01*
X126785715Y-78547619D01*
X126833334Y-78642857D01*
X126833334Y-78785714D01*
X126785715Y-78880952D01*
X126738096Y-78928571D01*
X126642858Y-78976190D01*
X126261905Y-78976190D01*
X127166667Y-78452381D02*
X127833334Y-78452381D01*
X127404762Y-79452381D01*
X56952381Y-99066666D02*
X56476190Y-99400000D01*
X56952381Y-99638095D02*
X55952381Y-99638095D01*
X55952381Y-99257142D01*
X56000000Y-99161904D01*
X56047619Y-99114285D01*
X56142857Y-99066666D01*
X56285714Y-99066666D01*
X56380952Y-99114285D01*
X56428571Y-99161904D01*
X56476190Y-99257142D01*
X56476190Y-99638095D01*
X56380952Y-98495238D02*
X56333333Y-98590476D01*
X56285714Y-98638095D01*
X56190476Y-98685714D01*
X56142857Y-98685714D01*
X56047619Y-98638095D01*
X56000000Y-98590476D01*
X55952381Y-98495238D01*
X55952381Y-98304761D01*
X56000000Y-98209523D01*
X56047619Y-98161904D01*
X56142857Y-98114285D01*
X56190476Y-98114285D01*
X56285714Y-98161904D01*
X56333333Y-98209523D01*
X56380952Y-98304761D01*
X56380952Y-98495238D01*
X56428571Y-98590476D01*
X56476190Y-98638095D01*
X56571429Y-98685714D01*
X56761905Y-98685714D01*
X56857143Y-98638095D01*
X56904762Y-98590476D01*
X56952381Y-98495238D01*
X56952381Y-98304761D01*
X56904762Y-98209523D01*
X56857143Y-98161904D01*
X56761905Y-98114285D01*
X56571429Y-98114285D01*
X56476190Y-98161904D01*
X56428571Y-98209523D01*
X56380952Y-98304761D01*
X103452381Y-103566666D02*
X102976190Y-103900000D01*
X103452381Y-104138095D02*
X102452381Y-104138095D01*
X102452381Y-103757142D01*
X102500000Y-103661904D01*
X102547619Y-103614285D01*
X102642857Y-103566666D01*
X102785714Y-103566666D01*
X102880952Y-103614285D01*
X102928571Y-103661904D01*
X102976190Y-103757142D01*
X102976190Y-104138095D01*
X103452381Y-103090476D02*
X103452381Y-102900000D01*
X103404762Y-102804761D01*
X103357143Y-102757142D01*
X103214286Y-102661904D01*
X103023810Y-102614285D01*
X102642857Y-102614285D01*
X102547619Y-102661904D01*
X102500000Y-102709523D01*
X102452381Y-102804761D01*
X102452381Y-102995238D01*
X102500000Y-103090476D01*
X102547619Y-103138095D01*
X102642857Y-103185714D01*
X102880952Y-103185714D01*
X102976190Y-103138095D01*
X103023810Y-103090476D01*
X103071429Y-102995238D01*
X103071429Y-102804761D01*
X103023810Y-102709523D01*
X102976190Y-102661904D01*
X102880952Y-102614285D01*
X61547143Y-116352381D02*
X61213809Y-115876190D01*
X60975714Y-116352381D02*
X60975714Y-115352381D01*
X61356667Y-115352381D01*
X61451905Y-115400000D01*
X61499524Y-115447619D01*
X61547143Y-115542857D01*
X61547143Y-115685714D01*
X61499524Y-115780952D01*
X61451905Y-115828571D01*
X61356667Y-115876190D01*
X60975714Y-115876190D01*
X62499524Y-116352381D02*
X61928095Y-116352381D01*
X62213809Y-116352381D02*
X62213809Y-115352381D01*
X62118571Y-115495238D01*
X62023333Y-115590476D01*
X61928095Y-115638095D01*
X63118571Y-115352381D02*
X63213810Y-115352381D01*
X63309048Y-115400000D01*
X63356667Y-115447619D01*
X63404286Y-115542857D01*
X63451905Y-115733333D01*
X63451905Y-115971429D01*
X63404286Y-116161905D01*
X63356667Y-116257143D01*
X63309048Y-116304762D01*
X63213810Y-116352381D01*
X63118571Y-116352381D01*
X63023333Y-116304762D01*
X62975714Y-116257143D01*
X62928095Y-116161905D01*
X62880476Y-115971429D01*
X62880476Y-115733333D01*
X62928095Y-115542857D01*
X62975714Y-115447619D01*
X63023333Y-115400000D01*
X63118571Y-115352381D01*
X79552381Y-80832857D02*
X79076190Y-81166191D01*
X79552381Y-81404286D02*
X78552381Y-81404286D01*
X78552381Y-81023333D01*
X78600000Y-80928095D01*
X78647619Y-80880476D01*
X78742857Y-80832857D01*
X78885714Y-80832857D01*
X78980952Y-80880476D01*
X79028571Y-80928095D01*
X79076190Y-81023333D01*
X79076190Y-81404286D01*
X79552381Y-79880476D02*
X79552381Y-80451905D01*
X79552381Y-80166191D02*
X78552381Y-80166191D01*
X78695238Y-80261429D01*
X78790476Y-80356667D01*
X78838095Y-80451905D01*
X79552381Y-78928095D02*
X79552381Y-79499524D01*
X79552381Y-79213810D02*
X78552381Y-79213810D01*
X78695238Y-79309048D01*
X78790476Y-79404286D01*
X78838095Y-79499524D01*
X70457143Y-86232381D02*
X70123809Y-85756190D01*
X69885714Y-86232381D02*
X69885714Y-85232381D01*
X70266667Y-85232381D01*
X70361905Y-85280000D01*
X70409524Y-85327619D01*
X70457143Y-85422857D01*
X70457143Y-85565714D01*
X70409524Y-85660952D01*
X70361905Y-85708571D01*
X70266667Y-85756190D01*
X69885714Y-85756190D01*
X71409524Y-86232381D02*
X70838095Y-86232381D01*
X71123809Y-86232381D02*
X71123809Y-85232381D01*
X71028571Y-85375238D01*
X70933333Y-85470476D01*
X70838095Y-85518095D01*
X71790476Y-85327619D02*
X71838095Y-85280000D01*
X71933333Y-85232381D01*
X72171429Y-85232381D01*
X72266667Y-85280000D01*
X72314286Y-85327619D01*
X72361905Y-85422857D01*
X72361905Y-85518095D01*
X72314286Y-85660952D01*
X71742857Y-86232381D01*
X72361905Y-86232381D01*
X77547143Y-116352381D02*
X77213809Y-115876190D01*
X76975714Y-116352381D02*
X76975714Y-115352381D01*
X77356667Y-115352381D01*
X77451905Y-115400000D01*
X77499524Y-115447619D01*
X77547143Y-115542857D01*
X77547143Y-115685714D01*
X77499524Y-115780952D01*
X77451905Y-115828571D01*
X77356667Y-115876190D01*
X76975714Y-115876190D01*
X78499524Y-116352381D02*
X77928095Y-116352381D01*
X78213809Y-116352381D02*
X78213809Y-115352381D01*
X78118571Y-115495238D01*
X78023333Y-115590476D01*
X77928095Y-115638095D01*
X78832857Y-115352381D02*
X79451905Y-115352381D01*
X79118571Y-115733333D01*
X79261429Y-115733333D01*
X79356667Y-115780952D01*
X79404286Y-115828571D01*
X79451905Y-115923810D01*
X79451905Y-116161905D01*
X79404286Y-116257143D01*
X79356667Y-116304762D01*
X79261429Y-116352381D01*
X78975714Y-116352381D01*
X78880476Y-116304762D01*
X78832857Y-116257143D01*
X81352381Y-97135238D02*
X80876190Y-97468572D01*
X81352381Y-97706667D02*
X80352381Y-97706667D01*
X80352381Y-97325714D01*
X80400000Y-97230476D01*
X80447619Y-97182857D01*
X80542857Y-97135238D01*
X80685714Y-97135238D01*
X80780952Y-97182857D01*
X80828571Y-97230476D01*
X80876190Y-97325714D01*
X80876190Y-97706667D01*
X80352381Y-96849524D02*
X81352381Y-96516191D01*
X80352381Y-96182857D01*
X81352381Y-95325714D02*
X81352381Y-95897143D01*
X81352381Y-95611429D02*
X80352381Y-95611429D01*
X80495238Y-95706667D01*
X80590476Y-95801905D01*
X80638095Y-95897143D01*
X95304762Y-101892381D02*
X94971428Y-101416190D01*
X94733333Y-101892381D02*
X94733333Y-100892381D01*
X95114286Y-100892381D01*
X95209524Y-100940000D01*
X95257143Y-100987619D01*
X95304762Y-101082857D01*
X95304762Y-101225714D01*
X95257143Y-101320952D01*
X95209524Y-101368571D01*
X95114286Y-101416190D01*
X94733333Y-101416190D01*
X95590476Y-100892381D02*
X95923809Y-101892381D01*
X96257143Y-100892381D01*
X96542857Y-100987619D02*
X96590476Y-100940000D01*
X96685714Y-100892381D01*
X96923810Y-100892381D01*
X97019048Y-100940000D01*
X97066667Y-100987619D01*
X97114286Y-101082857D01*
X97114286Y-101178095D01*
X97066667Y-101320952D01*
X96495238Y-101892381D01*
X97114286Y-101892381D01*
X107852381Y-73135238D02*
X107376190Y-73468572D01*
X107852381Y-73706667D02*
X106852381Y-73706667D01*
X106852381Y-73325714D01*
X106900000Y-73230476D01*
X106947619Y-73182857D01*
X107042857Y-73135238D01*
X107185714Y-73135238D01*
X107280952Y-73182857D01*
X107328571Y-73230476D01*
X107376190Y-73325714D01*
X107376190Y-73706667D01*
X106852381Y-72849524D02*
X107852381Y-72516191D01*
X106852381Y-72182857D01*
X106852381Y-71944762D02*
X106852381Y-71325714D01*
X107233333Y-71659048D01*
X107233333Y-71516190D01*
X107280952Y-71420952D01*
X107328571Y-71373333D01*
X107423810Y-71325714D01*
X107661905Y-71325714D01*
X107757143Y-71373333D01*
X107804762Y-71420952D01*
X107852381Y-71516190D01*
X107852381Y-71801905D01*
X107804762Y-71897143D01*
X107757143Y-71944762D01*
X100904762Y-63202381D02*
X100571428Y-62726190D01*
X100333333Y-63202381D02*
X100333333Y-62202381D01*
X100714286Y-62202381D01*
X100809524Y-62250000D01*
X100857143Y-62297619D01*
X100904762Y-62392857D01*
X100904762Y-62535714D01*
X100857143Y-62630952D01*
X100809524Y-62678571D01*
X100714286Y-62726190D01*
X100333333Y-62726190D01*
X101190476Y-62202381D02*
X101523809Y-63202381D01*
X101857143Y-62202381D01*
X102619048Y-62535714D02*
X102619048Y-63202381D01*
X102380952Y-62154762D02*
X102142857Y-62869048D01*
X102761905Y-62869048D01*
X79452381Y-92595238D02*
X78976190Y-92928572D01*
X79452381Y-93166667D02*
X78452381Y-93166667D01*
X78452381Y-92785714D01*
X78500000Y-92690476D01*
X78547619Y-92642857D01*
X78642857Y-92595238D01*
X78785714Y-92595238D01*
X78880952Y-92642857D01*
X78928571Y-92690476D01*
X78976190Y-92785714D01*
X78976190Y-93166667D01*
X78452381Y-92309524D02*
X79452381Y-91976191D01*
X78452381Y-91642857D01*
X78452381Y-90833333D02*
X78452381Y-91309524D01*
X78928571Y-91357143D01*
X78880952Y-91309524D01*
X78833333Y-91214286D01*
X78833333Y-90976190D01*
X78880952Y-90880952D01*
X78928571Y-90833333D01*
X79023810Y-90785714D01*
X79261905Y-90785714D01*
X79357143Y-90833333D01*
X79404762Y-90880952D01*
X79452381Y-90976190D01*
X79452381Y-91214286D01*
X79404762Y-91309524D01*
X79357143Y-91357143D01*
X73904762Y-107712381D02*
X73571428Y-107236190D01*
X73333333Y-107712381D02*
X73333333Y-106712381D01*
X73714286Y-106712381D01*
X73809524Y-106760000D01*
X73857143Y-106807619D01*
X73904762Y-106902857D01*
X73904762Y-107045714D01*
X73857143Y-107140952D01*
X73809524Y-107188571D01*
X73714286Y-107236190D01*
X73333333Y-107236190D01*
X74190476Y-106712381D02*
X74523809Y-107712381D01*
X74857143Y-106712381D01*
X75619048Y-106712381D02*
X75428571Y-106712381D01*
X75333333Y-106760000D01*
X75285714Y-106807619D01*
X75190476Y-106950476D01*
X75142857Y-107140952D01*
X75142857Y-107521905D01*
X75190476Y-107617143D01*
X75238095Y-107664762D01*
X75333333Y-107712381D01*
X75523810Y-107712381D01*
X75619048Y-107664762D01*
X75666667Y-107617143D01*
X75714286Y-107521905D01*
X75714286Y-107283810D01*
X75666667Y-107188571D01*
X75619048Y-107140952D01*
X75523810Y-107093333D01*
X75333333Y-107093333D01*
X75238095Y-107140952D01*
X75190476Y-107188571D01*
X75142857Y-107283810D01*
X120352381Y-96095238D02*
X119876190Y-96428572D01*
X120352381Y-96666667D02*
X119352381Y-96666667D01*
X119352381Y-96285714D01*
X119400000Y-96190476D01*
X119447619Y-96142857D01*
X119542857Y-96095238D01*
X119685714Y-96095238D01*
X119780952Y-96142857D01*
X119828571Y-96190476D01*
X119876190Y-96285714D01*
X119876190Y-96666667D01*
X119352381Y-95809524D02*
X120352381Y-95476191D01*
X119352381Y-95142857D01*
X119352381Y-94904762D02*
X119352381Y-94238095D01*
X120352381Y-94666667D01*
X55732381Y-109141905D02*
X56541905Y-109141905D01*
X56637143Y-109094286D01*
X56684762Y-109046667D01*
X56732381Y-108951429D01*
X56732381Y-108760952D01*
X56684762Y-108665714D01*
X56637143Y-108618095D01*
X56541905Y-108570476D01*
X55732381Y-108570476D01*
X55827619Y-108141905D02*
X55780000Y-108094286D01*
X55732381Y-107999048D01*
X55732381Y-107760952D01*
X55780000Y-107665714D01*
X55827619Y-107618095D01*
X55922857Y-107570476D01*
X56018095Y-107570476D01*
X56160952Y-107618095D01*
X56732381Y-108189524D01*
X56732381Y-107570476D01*
X92048095Y-107122381D02*
X92048095Y-107931905D01*
X92095714Y-108027143D01*
X92143333Y-108074762D01*
X92238571Y-108122381D01*
X92429048Y-108122381D01*
X92524286Y-108074762D01*
X92571905Y-108027143D01*
X92619524Y-107931905D01*
X92619524Y-107122381D01*
X93000476Y-107122381D02*
X93619524Y-107122381D01*
X93286190Y-107503333D01*
X93429048Y-107503333D01*
X93524286Y-107550952D01*
X93571905Y-107598571D01*
X93619524Y-107693810D01*
X93619524Y-107931905D01*
X93571905Y-108027143D01*
X93524286Y-108074762D01*
X93429048Y-108122381D01*
X93143333Y-108122381D01*
X93048095Y-108074762D01*
X93000476Y-108027143D01*
X61166666Y-130452381D02*
X61499999Y-131452381D01*
X61833333Y-130452381D01*
X62547619Y-131404762D02*
X62452381Y-131452381D01*
X62261904Y-131452381D01*
X62166666Y-131404762D01*
X62119047Y-131309524D01*
X62119047Y-130928571D01*
X62166666Y-130833333D01*
X62261904Y-130785714D01*
X62452381Y-130785714D01*
X62547619Y-130833333D01*
X62595238Y-130928571D01*
X62595238Y-131023810D01*
X62119047Y-131119048D01*
X63023809Y-131452381D02*
X63023809Y-130785714D01*
X63023809Y-130976190D02*
X63071428Y-130880952D01*
X63119047Y-130833333D01*
X63214285Y-130785714D01*
X63309524Y-130785714D01*
X63500000Y-130785714D02*
X63880952Y-130785714D01*
X63642857Y-130452381D02*
X63642857Y-131309524D01*
X63690476Y-131404762D01*
X63785714Y-131452381D01*
X63880952Y-131452381D01*
X64738096Y-131452381D02*
X64166667Y-131452381D01*
X64452381Y-131452381D02*
X64452381Y-130452381D01*
X64357143Y-130595238D01*
X64261905Y-130690476D01*
X64166667Y-130738095D01*
X110428095Y-79122381D02*
X110428095Y-79931905D01*
X110475714Y-80027143D01*
X110523333Y-80074762D01*
X110618571Y-80122381D01*
X110809048Y-80122381D01*
X110904286Y-80074762D01*
X110951905Y-80027143D01*
X110999524Y-79931905D01*
X110999524Y-79122381D01*
X111999524Y-80122381D02*
X111428095Y-80122381D01*
X111713809Y-80122381D02*
X111713809Y-79122381D01*
X111618571Y-79265238D01*
X111523333Y-79360476D01*
X111428095Y-79408095D01*
X125042381Y-115928095D02*
X124042381Y-115928095D01*
X124042381Y-115690000D01*
X124090000Y-115547142D01*
X124185238Y-115451904D01*
X124280476Y-115404285D01*
X124470952Y-115356666D01*
X124613810Y-115356666D01*
X124804286Y-115404285D01*
X124899524Y-115451904D01*
X124994762Y-115547142D01*
X125042381Y-115690000D01*
X125042381Y-115928095D01*
X125042381Y-114404285D02*
X125042381Y-114975714D01*
X125042381Y-114690000D02*
X124042381Y-114690000D01*
X124185238Y-114785238D01*
X124280476Y-114880476D01*
X124328095Y-114975714D01*
X119042381Y-115928095D02*
X118042381Y-115928095D01*
X118042381Y-115690000D01*
X118090000Y-115547142D01*
X118185238Y-115451904D01*
X118280476Y-115404285D01*
X118470952Y-115356666D01*
X118613810Y-115356666D01*
X118804286Y-115404285D01*
X118899524Y-115451904D01*
X118994762Y-115547142D01*
X119042381Y-115690000D01*
X119042381Y-115928095D01*
X118137619Y-114975714D02*
X118090000Y-114928095D01*
X118042381Y-114832857D01*
X118042381Y-114594761D01*
X118090000Y-114499523D01*
X118137619Y-114451904D01*
X118232857Y-114404285D01*
X118328095Y-114404285D01*
X118470952Y-114451904D01*
X119042381Y-115023333D01*
X119042381Y-114404285D01*
M02*
